<?xml version="1.0" encoding="UTF-8" standalone="no"?>
<!-- Created with Inkscape (http://www.inkscape.org/) -->
<svg
   xmlns:dc="http://purl.org/dc/elements/1.1/"
   xmlns:cc="http://web.resource.org/cc/"
   xmlns:rdf="http://www.w3.org/1999/02/22-rdf-syntax-ns#"
   xmlns:svg="http://www.w3.org/2000/svg"
   xmlns="http://www.w3.org/2000/svg"
   xmlns:xlink="http://www.w3.org/1999/xlink"
   xmlns:sodipodi="http://sodipodi.sourceforge.net/DTD/sodipodi-0.dtd"
   xmlns:inkscape="http://www.inkscape.org/namespaces/inkscape"
   version="1.0"
   width="25"
   height="25"
   id="svg4228"
   sodipodi:version="0.32"
   inkscape:version="0.45.1"
   sodipodi:docname="GoLevelWestButtonPushed.svg"
   sodipodi:docbase="/home/ian/Vector stuff/FreeDroid"
   inkscape:output_extension="org.inkscape.output.svg.inkscape"
   inkscape:export-filename="/home/ian/Vector stuff/FreeDroid/BBB.png"
   inkscape:export-xdpi="90"
   inkscape:export-ydpi="90">
  <metadata
     id="metadata32">
    <rdf:RDF>
      <cc:Work
         rdf:about="">
        <dc:format>image/svg+xml</dc:format>
        <dc:type
           rdf:resource="http://purl.org/dc/dcmitype/StillImage" />
      </cc:Work>
    </rdf:RDF>
  </metadata>
  <sodipodi:namedview
     inkscape:window-height="580"
     inkscape:window-width="794"
     inkscape:pageshadow="2"
     inkscape:pageopacity="0.0"
     guidetolerance="10.0"
     gridtolerance="10.0"
     objecttolerance="10.0"
     borderopacity="1.0"
     bordercolor="#666666"
     pagecolor="#ffffff"
     id="base"
     showguides="true"
     inkscape:guide-bbox="true"
     inkscape:zoom="4"
     inkscape:cx="14.304223"
     inkscape:cy="12.551479"
     inkscape:window-x="203"
     inkscape:window-y="371"
     inkscape:current-layer="svg4228"
     width="25px"
     height="25px" />
  <defs
     id="defs4230">
    <linearGradient
       id="linearGradient7194">
      <stop
         style="stop-color:#ff8b00;stop-opacity:1;"
         offset="0"
         id="stop7196" />
      <stop
         style="stop-color:#ffff00;stop-opacity:1;"
         offset="1"
         id="stop7198" />
    </linearGradient>
    <linearGradient
       id="linearGradient7228">
      <stop
         style="stop-color:#000000;stop-opacity:1;"
         offset="0"
         id="stop7230" />
      <stop
         id="stop7232"
         offset="0.5"
         style="stop-color:#fffdff;stop-opacity:0.08547009;" />
      <stop
         style="stop-color:#ffffc3;stop-opacity:0;"
         offset="0.75"
         id="stop7234" />
      <stop
         id="stop7236"
         offset="0.875"
         style="stop-color:#ffffc3;stop-opacity:0;" />
      <stop
         style="stop-color:#ffffc3;stop-opacity:0;"
         offset="1"
         id="stop7238" />
    </linearGradient>
    <linearGradient
       id="linearGradient4291">
      <stop
         id="stop4293"
         offset="0"
         style="stop-color:#000000;stop-opacity:1;" />
      <stop
         style="stop-color:#fffdff;stop-opacity:0.08547009;"
         offset="0.5"
         id="stop4295" />
      <stop
         id="stop4297"
         offset="0.75"
         style="stop-color:#ffffc3;stop-opacity:0;" />
      <stop
         style="stop-color:#ffffc3;stop-opacity:0;"
         offset="0.875"
         id="stop4299" />
      <stop
         id="stop4301"
         offset="1"
         style="stop-color:#ffffc3;stop-opacity:0;" />
    </linearGradient>
    <linearGradient
       id="linearGradient54487">
      <stop
         style="stop-color:#ffffff;stop-opacity:0.64957267;"
         offset="0"
         id="stop54489" />
      <stop
         id="stop54495"
         offset="0.5"
         style="stop-color:#c4fdff;stop-opacity:0;" />
      <stop
         style="stop-color:#ffffc3;stop-opacity:0;"
         offset="0.75"
         id="stop54497" />
      <stop
         id="stop54499"
         offset="0.875"
         style="stop-color:#ffffc3;stop-opacity:0;" />
      <stop
         style="stop-color:#ffffc3;stop-opacity:0;"
         offset="1"
         id="stop54491" />
    </linearGradient>
    <linearGradient
       id="linearGradient36692">
      <stop
         id="stop36694"
         offset="0"
         style="stop-color:#000000;stop-opacity:0;" />
      <stop
         id="stop36700"
         offset="1"
         style="stop-color:#323232;stop-opacity:0.95689654;" />
    </linearGradient>
    <linearGradient
       id="linearGradient35713">
      <stop
         style="stop-color:#ffffff;stop-opacity:0.28448275;"
         offset="0"
         id="stop35715" />
      <stop
         id="stop35717"
         offset="0.5"
         style="stop-color:#ffffff;stop-opacity:0;" />
      <stop
         style="stop-color:#aeaeae;stop-opacity:0;"
         offset="0.75"
         id="stop35719" />
      <stop
         style="stop-color:#d6ffff;stop-opacity:1;"
         offset="1"
         id="stop35721" />
    </linearGradient>
    <linearGradient
       id="linearGradient20167">
      <stop
         style="stop-color:#000000;stop-opacity:0;"
         offset="0"
         id="stop20169" />
      <stop
         id="stop20171"
         offset="0.5"
         style="stop-color:#fff7ff;stop-opacity:0;" />
      <stop
         style="stop-color:#c5efff;stop-opacity:1;"
         offset="1"
         id="stop20173" />
    </linearGradient>
    <linearGradient
       id="linearGradient14338">
      <stop
         id="stop14340"
         offset="0"
         style="stop-color:#ffffff;stop-opacity:0;" />
      <stop
         style="stop-color:#ffffff;stop-opacity:0;"
         offset="0.5"
         id="stop14344" />
      <stop
         id="stop14346"
         offset="0.75"
         style="stop-color:#000000;stop-opacity:0;" />
      <stop
         id="stop14342"
         offset="1"
         style="stop-color:#323632;stop-opacity:1;" />
    </linearGradient>
    <linearGradient
       id="linearGradient12924">
      <stop
         style="stop-color:#f0f0f0;stop-opacity:0.63247865;"
         offset="0"
         id="stop12926" />
      <stop
         id="stop12928"
         offset="0.5"
         style="stop-color:#ffffff;stop-opacity:0;" />
      <stop
         style="stop-color:#ffffff;stop-opacity:0;"
         offset="1"
         id="stop12930" />
    </linearGradient>
    <linearGradient
       id="linearGradient10978">
      <stop
         style="stop-color:#004e83;stop-opacity:0.31623933;"
         offset="0"
         id="stop10980" />
      <stop
         style="stop-color:#2b646d;stop-opacity:0.75213677;"
         offset="1"
         id="stop10982" />
    </linearGradient>
    <linearGradient
       id="linearGradient8063">
      <stop
         style="stop-color:#f0f0f0;stop-opacity:0;"
         offset="0"
         id="stop8065" />
      <stop
         id="stop8067"
         offset="0.5"
         style="stop-color:#646464;stop-opacity:0;" />
      <stop
         style="stop-color:#e6e6e6;stop-opacity:1;"
         offset="1"
         id="stop8069" />
    </linearGradient>
    <linearGradient
       id="linearGradient6091">
      <stop
         id="stop6093"
         offset="0"
         style="stop-color:#000000;stop-opacity:0;" />
      <stop
         style="stop-color:#00b9ff;stop-opacity:0;"
         offset="0.5"
         id="stop7068" />
      <stop
         id="stop6095"
         offset="1"
         style="stop-color:#6687ac;stop-opacity:1;" />
    </linearGradient>
    <linearGradient
       id="linearGradient4139">
      <stop
         style="stop-color:#f0f0f0;stop-opacity:0.32478634;"
         offset="0"
         id="stop4141" />
      <stop
         style="stop-color:#e6e6e6;stop-opacity:1;"
         offset="1"
         id="stop4143" />
    </linearGradient>
    <linearGradient
       id="linearGradient5165">
      <stop
         style="stop-color:#ffff00;stop-opacity:1"
         offset="0"
         id="stop5167" />
      <stop
         style="stop-color:#ffb900;stop-opacity:1"
         offset="1"
         id="stop5169" />
    </linearGradient>
    <linearGradient
       id="linearGradient4177">
      <stop
         style="stop-color:#ffff80;stop-opacity:1"
         offset="0"
         id="stop4179" />
      <stop
         style="stop-color:#00ffff;stop-opacity:1"
         offset="1"
         id="stop4181" />
    </linearGradient>
    <linearGradient
       id="linearGradient4212">
      <stop
         style="stop-color:#ffff00;stop-opacity:1"
         offset="0"
         id="stop4214" />
      <stop
         style="stop-color:#ffff00;stop-opacity:1"
         offset="0.5"
         id="stop4220" />
      <stop
         style="stop-color:#ffffff;stop-opacity:0"
         offset="1"
         id="stop4216" />
    </linearGradient>
    <linearGradient
       id="linearGradient3155">
      <stop
         style="stop-color:#ffffff;stop-opacity:1"
         offset="0"
         id="stop3157" />
      <stop
         style="stop-color:#ffffff;stop-opacity:0"
         offset="1"
         id="stop3159" />
    </linearGradient>
    <radialGradient
       cx="15"
       cy="15"
       r="16"
       fx="15"
       fy="15"
       id="radialGradient4185"
       xlink:href="#linearGradient4177"
       gradientUnits="userSpaceOnUse" />
    <radialGradient
       cx="15.028969"
       cy="15.097325"
       r="6.051754"
       fx="15.028969"
       fy="15.097325"
       id="radialGradient5171"
       xlink:href="#linearGradient5165"
       gradientUnits="userSpaceOnUse"
       gradientTransform="matrix(1,0,0,0.9895656,0,0.157532)" />
    <radialGradient
       cx="15"
       cy="15"
       r="16"
       fx="15"
       fy="15"
       id="radialGradient5195"
       xlink:href="#linearGradient4177"
       gradientUnits="userSpaceOnUse" />
    <radialGradient
       cx="15.028969"
       cy="15.097325"
       r="6.051754"
       fx="15.028969"
       fy="15.097325"
       id="radialGradient5197"
       xlink:href="#linearGradient5165"
       gradientUnits="userSpaceOnUse"
       gradientTransform="matrix(1,0,0,0.9895656,0,0.157532)" />
    <radialGradient
       cx="15"
       cy="15"
       r="16"
       fx="15"
       fy="15"
       id="radialGradient5201"
       xlink:href="#linearGradient4177"
       gradientUnits="userSpaceOnUse" />
    <radialGradient
       cx="15"
       cy="15"
       r="16"
       fx="15"
       fy="15"
       id="radialGradient5207"
       xlink:href="#linearGradient4177"
       gradientUnits="userSpaceOnUse" />
    <radialGradient
       cx="15.028969"
       cy="15.097325"
       r="6.051754"
       fx="15.028969"
       fy="15.097325"
       id="radialGradient5209"
       xlink:href="#linearGradient5165"
       gradientUnits="userSpaceOnUse"
       gradientTransform="matrix(1,0,0,0.9895656,0,0.157532)" />
    <radialGradient
       cx="15"
       cy="15"
       r="16"
       fx="15"
       fy="15"
       id="radialGradient5213"
       xlink:href="#linearGradient4177"
       gradientUnits="userSpaceOnUse" />
    <radialGradient
       inkscape:collect="always"
       xlink:href="#linearGradient12924"
       id="radialGradient14332"
       gradientUnits="userSpaceOnUse"
       gradientTransform="matrix(1.518724,1.408519,-1.4502012,1.6006237,-5.1837474,-89.174314)"
       cx="23.082907"
       cy="20.024515"
       fx="23.082907"
       fy="20.024515"
       r="14.010153" />
    <radialGradient
       inkscape:collect="always"
       xlink:href="#linearGradient14338"
       id="radialGradient22126"
       gradientUnits="userSpaceOnUse"
       gradientTransform="matrix(1.2106494,3.8998741e-8,-4.3792597e-8,1.394612,4.0823089,6.3732263)"
       cx="-16.657145"
       cy="-16.075825"
       fx="-16.657145"
       fy="-16.075825"
       r="14.051131" />
    <radialGradient
       inkscape:collect="always"
       xlink:href="#linearGradient36692"
       id="radialGradient34742"
       gradientUnits="userSpaceOnUse"
       gradientTransform="matrix(1.2106494,3.8998741e-8,-4.3792597e-8,1.394612,33.249622,36.187002)"
       cx="-17.173395"
       cy="-16.166603"
       fx="-17.173395"
       fy="-16.166603"
       r="14.051131" />
    <radialGradient
       inkscape:collect="always"
       xlink:href="#linearGradient14338"
       id="radialGradient44547"
       gradientUnits="userSpaceOnUse"
       gradientTransform="matrix(1.2106494,3.8998741e-8,-4.3792597e-8,1.394612,33.249622,36.187002)"
       cx="-16.657145"
       cy="-16.075825"
       fx="-16.657145"
       fy="-16.075825"
       r="14.051131" />
    <linearGradient
       inkscape:collect="always"
       xlink:href="#linearGradient54487"
       id="linearGradient54493"
       x1="0.13810679"
       y1="14.808252"
       x2="15.05364"
       y2="14.808252"
       gradientUnits="userSpaceOnUse"
       spreadMethod="reflect"
       gradientTransform="matrix(1.0128213,0,0,1,-0.3860158,0)" />
    <linearGradient
       inkscape:collect="always"
       xlink:href="#linearGradient54487"
       id="linearGradient54503"
       gradientUnits="userSpaceOnUse"
       spreadMethod="reflect"
       x1="0.13810679"
       y1="14.808252"
       x2="15.05364"
       y2="14.808252"
       gradientTransform="matrix(1,0,0,1.0128213,-0.2453883,-29.858745)" />
    <radialGradient
       inkscape:collect="always"
       xlink:href="#linearGradient36692"
       id="radialGradient54517"
       gradientUnits="userSpaceOnUse"
       gradientTransform="matrix(1.2106494,3.8998741e-8,-4.3792597e-8,1.394612,33.249622,36.187002)"
       cx="-17.173395"
       cy="-16.166603"
       fx="-17.173395"
       fy="-16.166603"
       r="14.051131" />
    <radialGradient
       inkscape:collect="always"
       xlink:href="#linearGradient14338"
       id="radialGradient54519"
       gradientUnits="userSpaceOnUse"
       gradientTransform="matrix(1.2106494,3.8998741e-8,-4.3792597e-8,1.394612,4.0823089,6.3732263)"
       cx="-16.657145"
       cy="-16.075825"
       fx="-16.657145"
       fy="-16.075825"
       r="14.051131" />
    <radialGradient
       inkscape:collect="always"
       xlink:href="#linearGradient14338"
       id="radialGradient54521"
       gradientUnits="userSpaceOnUse"
       gradientTransform="matrix(1.2106494,3.8998741e-8,-4.3792597e-8,1.394612,33.249622,36.187002)"
       cx="-16.657145"
       cy="-16.075825"
       fx="-16.657145"
       fy="-16.075825"
       r="14.051131" />
    <linearGradient
       inkscape:collect="always"
       xlink:href="#linearGradient54487"
       id="linearGradient54523"
       gradientUnits="userSpaceOnUse"
       gradientTransform="matrix(1.0128213,0,0,1,-0.3860158,0)"
       spreadMethod="reflect"
       x1="0.13810679"
       y1="14.808252"
       x2="15.05364"
       y2="14.808252" />
    <linearGradient
       inkscape:collect="always"
       xlink:href="#linearGradient54487"
       id="linearGradient54525"
       gradientUnits="userSpaceOnUse"
       gradientTransform="matrix(1,0,0,1.0128213,-0.2453883,-29.858745)"
       spreadMethod="reflect"
       x1="0.13810679"
       y1="14.808252"
       x2="15.05364"
       y2="14.808252" />
    <linearGradient
       inkscape:collect="always"
       xlink:href="#linearGradient54487"
       id="linearGradient54528"
       gradientUnits="userSpaceOnUse"
       gradientTransform="matrix(1,0,0,1.0128213,-0.2453883,-29.858745)"
       spreadMethod="reflect"
       x1="0.13810679"
       y1="14.808252"
       x2="15.05364"
       y2="14.808252" />
    <linearGradient
       inkscape:collect="always"
       xlink:href="#linearGradient54487"
       id="linearGradient54531"
       gradientUnits="userSpaceOnUse"
       gradientTransform="matrix(1.0128213,0,0,1,-0.3860158,9.7656251e-2)"
       spreadMethod="reflect"
       x1="0.13810679"
       y1="14.808252"
       x2="15.05364"
       y2="14.808252" />
    <radialGradient
       inkscape:collect="always"
       xlink:href="#linearGradient14338"
       id="radialGradient54534"
       gradientUnits="userSpaceOnUse"
       gradientTransform="matrix(1.2106494,3.8998741e-8,-4.3792597e-8,1.394612,33.249622,36.187002)"
       cx="-16.657145"
       cy="-16.075825"
       fx="-16.657145"
       fy="-16.075825"
       r="14.051131" />
    <radialGradient
       inkscape:collect="always"
       xlink:href="#linearGradient14338"
       id="radialGradient54537"
       gradientUnits="userSpaceOnUse"
       gradientTransform="matrix(1.2106494,3.8998741e-8,-4.3792597e-8,1.394612,4.0823089,6.3732263)"
       cx="-16.657145"
       cy="-16.075825"
       fx="-16.657145"
       fy="-16.075825"
       r="14.051131" />
    <radialGradient
       inkscape:collect="always"
       xlink:href="#linearGradient36692"
       id="radialGradient54542"
       gradientUnits="userSpaceOnUse"
       gradientTransform="matrix(1.2106494,3.8998741e-8,-4.3792597e-8,1.394612,33.249622,36.187002)"
       cx="-17.173395"
       cy="-16.166603"
       fx="-17.173395"
       fy="-16.166603"
       r="14.051131" />
    <radialGradient
       inkscape:collect="always"
       xlink:href="#linearGradient36692"
       id="radialGradient54558"
       gradientUnits="userSpaceOnUse"
       gradientTransform="matrix(1.2106494,3.8998741e-8,-4.3792597e-8,1.394612,33.249622,36.187002)"
       cx="-17.173395"
       cy="-16.166603"
       fx="-17.173395"
       fy="-16.166603"
       r="14.051131" />
    <radialGradient
       inkscape:collect="always"
       xlink:href="#linearGradient14338"
       id="radialGradient54560"
       gradientUnits="userSpaceOnUse"
       gradientTransform="matrix(1.2106494,3.8998741e-8,-4.3792597e-8,1.394612,33.249622,36.187002)"
       cx="-16.657145"
       cy="-16.075825"
       fx="-16.657145"
       fy="-16.075825"
       r="14.051131" />
    <radialGradient
       inkscape:collect="always"
       xlink:href="#linearGradient14338"
       id="radialGradient54562"
       gradientUnits="userSpaceOnUse"
       gradientTransform="matrix(1.2106494,3.8998741e-8,-4.3792597e-8,1.394612,4.0823089,6.3732263)"
       cx="-16.657145"
       cy="-16.075825"
       fx="-16.657145"
       fy="-16.075825"
       r="14.051131" />
    <linearGradient
       inkscape:collect="always"
       xlink:href="#linearGradient54487"
       id="linearGradient54564"
       gradientUnits="userSpaceOnUse"
       gradientTransform="matrix(1,0,0,1.0128213,-0.2453883,-29.858745)"
       spreadMethod="reflect"
       x1="0.13810679"
       y1="14.808252"
       x2="15.05364"
       y2="14.808252" />
    <linearGradient
       inkscape:collect="always"
       xlink:href="#linearGradient54487"
       id="linearGradient54566"
       gradientUnits="userSpaceOnUse"
       gradientTransform="matrix(1.0128213,0,0,1,-0.3860158,9.7656251e-2)"
       spreadMethod="reflect"
       x1="0.13810679"
       y1="14.808252"
       x2="15.05364"
       y2="14.808252" />
    <linearGradient
       inkscape:collect="always"
       xlink:href="#linearGradient4291"
       id="linearGradient5273"
       gradientUnits="userSpaceOnUse"
       gradientTransform="matrix(1.005663,0,0,0.9964367,-30.13889,-29.755481)"
       spreadMethod="reflect"
       x1="0.13810679"
       y1="14.808252"
       x2="15.05364"
       y2="14.808252" />
    <radialGradient
       inkscape:collect="always"
       xlink:href="#linearGradient36692"
       id="radialGradient5280"
       gradientUnits="userSpaceOnUse"
       gradientTransform="matrix(1.2106494,3.8998741e-8,-4.3792597e-8,1.394612,33.640247,36.284658)"
       cx="-17.173395"
       cy="-16.166603"
       fx="-17.173395"
       fy="-16.166603"
       r="14.051131" />
    <radialGradient
       inkscape:collect="always"
       xlink:href="#linearGradient14338"
       id="radialGradient5282"
       gradientUnits="userSpaceOnUse"
       gradientTransform="matrix(1.2106494,3.8998741e-8,-4.3792597e-8,1.394612,33.640247,36.284658)"
       cx="-16.657145"
       cy="-16.075825"
       fx="-16.657145"
       fy="-16.075825"
       r="14.051131" />
    <radialGradient
       inkscape:collect="always"
       xlink:href="#linearGradient14338"
       id="radialGradient5284"
       gradientUnits="userSpaceOnUse"
       gradientTransform="matrix(1.2106494,3.8998741e-8,-4.3792597e-8,1.394612,3.691684,6.27557)"
       cx="-16.657145"
       cy="-16.075825"
       fx="-16.657145"
       fy="-16.075825"
       r="14.051131" />
    <linearGradient
       inkscape:collect="always"
       xlink:href="#linearGradient7228"
       id="linearGradient6257"
       gradientUnits="userSpaceOnUse"
       gradientTransform="matrix(1.005663,0,0,0.9964367,-0.13889,-29.755481)"
       spreadMethod="reflect"
       x1="0.13810679"
       y1="14.808252"
       x2="15.053641"
       y2="14.808252" />
    <radialGradient
       inkscape:collect="always"
       xlink:href="#linearGradient36692"
       id="radialGradient8246"
       gradientUnits="userSpaceOnUse"
       gradientTransform="matrix(1.2106494,3.8998741e-8,-4.3792597e-8,1.394612,33.640247,36.284658)"
       cx="-17.173395"
       cy="-16.166603"
       fx="-17.173395"
       fy="-16.166603"
       r="14.051131" />
    <radialGradient
       inkscape:collect="always"
       xlink:href="#linearGradient14338"
       id="radialGradient8248"
       gradientUnits="userSpaceOnUse"
       gradientTransform="matrix(1.2106494,3.8998741e-8,-4.3792597e-8,1.394612,33.640247,36.284658)"
       cx="-16.657145"
       cy="-16.075825"
       fx="-16.657145"
       fy="-16.075825"
       r="14.051131" />
    <radialGradient
       inkscape:collect="always"
       xlink:href="#linearGradient14338"
       id="radialGradient8250"
       gradientUnits="userSpaceOnUse"
       gradientTransform="matrix(1.2106494,3.8998741e-8,-4.3792597e-8,1.394612,3.691684,6.27557)"
       cx="-16.657145"
       cy="-16.075825"
       fx="-16.657145"
       fy="-16.075825"
       r="14.051131" />
    <linearGradient
       inkscape:collect="always"
       xlink:href="#linearGradient4291"
       id="linearGradient8252"
       gradientUnits="userSpaceOnUse"
       gradientTransform="matrix(1.005663,0,0,0.9964367,-30.13889,-29.755481)"
       spreadMethod="reflect"
       x1="0.13810679"
       y1="14.808252"
       x2="15.05364"
       y2="14.808252" />
    <linearGradient
       inkscape:collect="always"
       xlink:href="#linearGradient7228"
       id="linearGradient8254"
       gradientUnits="userSpaceOnUse"
       gradientTransform="matrix(1.005663,0,0,0.9964367,-0.13889,-29.755481)"
       spreadMethod="reflect"
       x1="0.13810679"
       y1="14.808252"
       x2="15.053641"
       y2="14.808252" />
    <linearGradient
       inkscape:collect="always"
       xlink:href="#linearGradient4291"
       id="linearGradient8262"
       gradientUnits="userSpaceOnUse"
       gradientTransform="matrix(1.005663,0,0,0.9964367,-30.13889,-29.755481)"
       spreadMethod="reflect"
       x1="0.13810679"
       y1="14.808252"
       x2="15.05364"
       y2="14.808252" />
    <linearGradient
       inkscape:collect="always"
       xlink:href="#linearGradient7228"
       id="linearGradient8264"
       gradientUnits="userSpaceOnUse"
       gradientTransform="matrix(1.005663,0,0,0.9964367,-0.13889,-29.755481)"
       spreadMethod="reflect"
       x1="0.13810679"
       y1="14.808252"
       x2="15.053641"
       y2="14.808252" />
    <radialGradient
       inkscape:collect="always"
       xlink:href="#linearGradient36692"
       id="radialGradient8290"
       gradientUnits="userSpaceOnUse"
       gradientTransform="matrix(1.2106494,3.8998741e-8,-4.3792597e-8,1.394612,33.640247,36.284658)"
       cx="-17.173395"
       cy="-16.166603"
       fx="-17.173395"
       fy="-16.166603"
       r="14.051131" />
    <radialGradient
       inkscape:collect="always"
       xlink:href="#linearGradient14338"
       id="radialGradient8292"
       gradientUnits="userSpaceOnUse"
       gradientTransform="matrix(1.2106494,3.8998741e-8,-4.3792597e-8,1.394612,33.640247,36.284658)"
       cx="-16.657145"
       cy="-16.075825"
       fx="-16.657145"
       fy="-16.075825"
       r="14.051131" />
    <radialGradient
       inkscape:collect="always"
       xlink:href="#linearGradient14338"
       id="radialGradient8294"
       gradientUnits="userSpaceOnUse"
       gradientTransform="matrix(1.2106494,3.8998741e-8,-4.3792597e-8,1.394612,3.691684,6.27557)"
       cx="-16.657145"
       cy="-16.075825"
       fx="-16.657145"
       fy="-16.075825"
       r="14.051131" />
    <linearGradient
       inkscape:collect="always"
       xlink:href="#linearGradient4291"
       id="linearGradient8296"
       gradientUnits="userSpaceOnUse"
       gradientTransform="matrix(1.005663,0,0,0.9964367,-30.13889,-29.755481)"
       spreadMethod="reflect"
       x1="0.13810679"
       y1="14.808252"
       x2="15.05364"
       y2="14.808252" />
    <linearGradient
       inkscape:collect="always"
       xlink:href="#linearGradient7228"
       id="linearGradient8298"
       gradientUnits="userSpaceOnUse"
       gradientTransform="matrix(1.005663,0,0,0.9964367,-0.13889,-29.755481)"
       spreadMethod="reflect"
       x1="0.13810679"
       y1="14.808252"
       x2="15.053641"
       y2="14.808252" />
    <linearGradient
       inkscape:collect="always"
       xlink:href="#linearGradient7194"
       id="linearGradient7200"
       x1="-63.18594"
       y1="-71.671875"
       x2="-52.539062"
       y2="-71.671875"
       gradientUnits="userSpaceOnUse"
       spreadMethod="reflect" />
    <radialGradient
       inkscape:collect="always"
       xlink:href="#linearGradient36692"
       id="radialGradient2304"
       gradientUnits="userSpaceOnUse"
       gradientTransform="matrix(1.2106494,3.8998741e-8,-4.3792597e-8,1.394612,33.640247,36.284658)"
       cx="-17.173395"
       cy="-16.166603"
       fx="-17.173395"
       fy="-16.166603"
       r="14.051131" />
    <radialGradient
       inkscape:collect="always"
       xlink:href="#linearGradient14338"
       id="radialGradient2306"
       gradientUnits="userSpaceOnUse"
       gradientTransform="matrix(1.2106494,3.8998741e-8,-4.3792597e-8,1.394612,33.640247,36.284658)"
       cx="-16.657145"
       cy="-16.075825"
       fx="-16.657145"
       fy="-16.075825"
       r="14.051131" />
    <radialGradient
       inkscape:collect="always"
       xlink:href="#linearGradient14338"
       id="radialGradient2308"
       gradientUnits="userSpaceOnUse"
       gradientTransform="matrix(1.2106494,3.8998741e-8,-4.3792597e-8,1.394612,3.691684,6.27557)"
       cx="-16.657145"
       cy="-16.075825"
       fx="-16.657145"
       fy="-16.075825"
       r="14.051131" />
    <linearGradient
       y2="14.808252"
       x2="15.053641"
       y1="14.808252"
       x1="0.13810679"
       spreadMethod="reflect"
       gradientTransform="matrix(0.8380525,0,0,0.830364,29.884262,-26.796238)"
       gradientUnits="userSpaceOnUse"
       id="linearGradient2298"
       xlink:href="#linearGradient7228"
       inkscape:collect="always" />
    <linearGradient
       y2="14.808252"
       x2="15.05364"
       y1="14.808252"
       x1="0.13810679"
       spreadMethod="reflect"
       gradientTransform="matrix(0.8380525,0,0,0.8303639,-27.115743,-54.796237)"
       gradientUnits="userSpaceOnUse"
       id="linearGradient2296"
       xlink:href="#linearGradient4291"
       inkscape:collect="always" />
    <linearGradient
       y2="14.808252"
       x2="15.05364"
       y1="14.808252"
       x1="0.13810679"
       spreadMethod="reflect"
       gradientTransform="matrix(0.8380525,0,0,0.8303639,-27.115743,-54.796237)"
       gradientUnits="userSpaceOnUse"
       id="linearGradient2295"
       xlink:href="#linearGradient4291"
       inkscape:collect="always" />
    <linearGradient
       y2="14.808252"
       x2="15.053641"
       y1="14.808252"
       x1="0.13810679"
       spreadMethod="reflect"
       gradientTransform="matrix(0.8380525,0,0,0.830364,29.884262,-26.796238)"
       gradientUnits="userSpaceOnUse"
       id="linearGradient2292"
       xlink:href="#linearGradient7228"
       inkscape:collect="always" />
    <radialGradient
       r="14.051131"
       fy="-16.075825"
       fx="-16.657145"
       cy="-16.075825"
       cx="-16.657145"
       gradientTransform="matrix(1.2106494,3.8998741e-8,-4.3792597e-8,1.394612,3.691684,6.27557)"
       gradientUnits="userSpaceOnUse"
       id="radialGradient2864"
       xlink:href="#linearGradient14338"
       inkscape:collect="always" />
    <radialGradient
       r="14.051131"
       fy="-16.075825"
       fx="-16.657145"
       cy="-16.075825"
       cx="-16.657145"
       gradientTransform="matrix(1.2106494,3.8998741e-8,-4.3792597e-8,1.394612,33.640247,36.284658)"
       gradientUnits="userSpaceOnUse"
       id="radialGradient2862"
       xlink:href="#linearGradient14338"
       inkscape:collect="always" />
    <radialGradient
       r="14.051131"
       fy="-16.166603"
       fx="-17.173395"
       cy="-16.166603"
       cx="-17.173395"
       gradientTransform="matrix(1.2106494,3.8998741e-8,-4.3792597e-8,1.394612,33.640247,36.284658)"
       gradientUnits="userSpaceOnUse"
       id="radialGradient2860"
       xlink:href="#linearGradient36692"
       inkscape:collect="always" />
    <linearGradient
       spreadMethod="reflect"
       gradientUnits="userSpaceOnUse"
       y2="-71.671875"
       x2="-52.539062"
       y1="-71.671875"
       x1="-63.18594"
       id="linearGradient2858"
       xlink:href="#linearGradient7194"
       inkscape:collect="always" />
    <linearGradient
       y2="14.808252"
       x2="15.053641"
       y1="14.808252"
       x1="0.13810679"
       spreadMethod="reflect"
       gradientTransform="matrix(1.005663,0,0,0.9964367,-0.13889,-29.755481)"
       gradientUnits="userSpaceOnUse"
       id="linearGradient2856"
       xlink:href="#linearGradient7228"
       inkscape:collect="always" />
    <linearGradient
       y2="14.808252"
       x2="15.05364"
       y1="14.808252"
       x1="0.13810679"
       spreadMethod="reflect"
       gradientTransform="matrix(1.005663,0,0,0.9964367,-30.13889,-29.755481)"
       gradientUnits="userSpaceOnUse"
       id="linearGradient2854"
       xlink:href="#linearGradient4291"
       inkscape:collect="always" />
    <radialGradient
       r="14.051131"
       fy="-16.075825"
       fx="-16.657145"
       cy="-16.075825"
       cx="-16.657145"
       gradientTransform="matrix(1.2106494,3.8998741e-8,-4.3792597e-8,1.394612,3.691684,6.27557)"
       gradientUnits="userSpaceOnUse"
       id="radialGradient2852"
       xlink:href="#linearGradient14338"
       inkscape:collect="always" />
    <radialGradient
       r="14.051131"
       fy="-16.075825"
       fx="-16.657145"
       cy="-16.075825"
       cx="-16.657145"
       gradientTransform="matrix(1.2106494,3.8998741e-8,-4.3792597e-8,1.394612,33.640247,36.284658)"
       gradientUnits="userSpaceOnUse"
       id="radialGradient2850"
       xlink:href="#linearGradient14338"
       inkscape:collect="always" />
    <radialGradient
       r="14.051131"
       fy="-16.166603"
       fx="-17.173395"
       cy="-16.166603"
       cx="-17.173395"
       gradientTransform="matrix(1.2106494,3.8998741e-8,-4.3792597e-8,1.394612,33.640247,36.284658)"
       gradientUnits="userSpaceOnUse"
       id="radialGradient2848"
       xlink:href="#linearGradient36692"
       inkscape:collect="always" />
    <linearGradient
       y2="14.808252"
       x2="15.053641"
       y1="14.808252"
       x1="0.13810679"
       spreadMethod="reflect"
       gradientTransform="matrix(1.005663,0,0,0.9964367,-0.13889,-29.755481)"
       gradientUnits="userSpaceOnUse"
       id="linearGradient2846"
       xlink:href="#linearGradient7228"
       inkscape:collect="always" />
    <linearGradient
       y2="14.808252"
       x2="15.05364"
       y1="14.808252"
       x1="0.13810679"
       spreadMethod="reflect"
       gradientTransform="matrix(1.005663,0,0,0.9964367,-30.13889,-29.755481)"
       gradientUnits="userSpaceOnUse"
       id="linearGradient2844"
       xlink:href="#linearGradient4291"
       inkscape:collect="always" />
    <linearGradient
       y2="14.808252"
       x2="15.053641"
       y1="14.808252"
       x1="0.13810679"
       spreadMethod="reflect"
       gradientTransform="matrix(1.005663,0,0,0.9964367,-0.13889,-29.755481)"
       gradientUnits="userSpaceOnUse"
       id="linearGradient2842"
       xlink:href="#linearGradient7228"
       inkscape:collect="always" />
    <linearGradient
       y2="14.808252"
       x2="15.05364"
       y1="14.808252"
       x1="0.13810679"
       spreadMethod="reflect"
       gradientTransform="matrix(1.005663,0,0,0.9964367,-30.13889,-29.755481)"
       gradientUnits="userSpaceOnUse"
       id="linearGradient2840"
       xlink:href="#linearGradient4291"
       inkscape:collect="always" />
    <radialGradient
       r="14.051131"
       fy="-16.075825"
       fx="-16.657145"
       cy="-16.075825"
       cx="-16.657145"
       gradientTransform="matrix(1.2106494,3.8998741e-8,-4.3792597e-8,1.394612,3.691684,6.27557)"
       gradientUnits="userSpaceOnUse"
       id="radialGradient2838"
       xlink:href="#linearGradient14338"
       inkscape:collect="always" />
    <radialGradient
       r="14.051131"
       fy="-16.075825"
       fx="-16.657145"
       cy="-16.075825"
       cx="-16.657145"
       gradientTransform="matrix(1.2106494,3.8998741e-8,-4.3792597e-8,1.394612,33.640247,36.284658)"
       gradientUnits="userSpaceOnUse"
       id="radialGradient2836"
       xlink:href="#linearGradient14338"
       inkscape:collect="always" />
    <radialGradient
       r="14.051131"
       fy="-16.166603"
       fx="-17.173395"
       cy="-16.166603"
       cx="-17.173395"
       gradientTransform="matrix(1.2106494,3.8998741e-8,-4.3792597e-8,1.394612,33.640247,36.284658)"
       gradientUnits="userSpaceOnUse"
       id="radialGradient2834"
       xlink:href="#linearGradient36692"
       inkscape:collect="always" />
    <linearGradient
       y2="14.808252"
       x2="15.053641"
       y1="14.808252"
       x1="0.13810679"
       spreadMethod="reflect"
       gradientTransform="matrix(1.005663,0,0,0.9964367,-0.13889,-29.755481)"
       gradientUnits="userSpaceOnUse"
       id="linearGradient2832"
       xlink:href="#linearGradient7228"
       inkscape:collect="always" />
    <radialGradient
       r="14.051131"
       fy="-16.075825"
       fx="-16.657145"
       cy="-16.075825"
       cx="-16.657145"
       gradientTransform="matrix(1.2106494,3.8998741e-8,-4.3792597e-8,1.394612,3.691684,6.27557)"
       gradientUnits="userSpaceOnUse"
       id="radialGradient2830"
       xlink:href="#linearGradient14338"
       inkscape:collect="always" />
    <radialGradient
       r="14.051131"
       fy="-16.075825"
       fx="-16.657145"
       cy="-16.075825"
       cx="-16.657145"
       gradientTransform="matrix(1.2106494,3.8998741e-8,-4.3792597e-8,1.394612,33.640247,36.284658)"
       gradientUnits="userSpaceOnUse"
       id="radialGradient2828"
       xlink:href="#linearGradient14338"
       inkscape:collect="always" />
    <radialGradient
       r="14.051131"
       fy="-16.166603"
       fx="-17.173395"
       cy="-16.166603"
       cx="-17.173395"
       gradientTransform="matrix(1.2106494,3.8998741e-8,-4.3792597e-8,1.394612,33.640247,36.284658)"
       gradientUnits="userSpaceOnUse"
       id="radialGradient2826"
       xlink:href="#linearGradient36692"
       inkscape:collect="always" />
    <linearGradient
       y2="14.808252"
       x2="15.05364"
       y1="14.808252"
       x1="0.13810679"
       spreadMethod="reflect"
       gradientTransform="matrix(1.005663,0,0,0.9964367,-30.13889,-29.755481)"
       gradientUnits="userSpaceOnUse"
       id="linearGradient2824"
       xlink:href="#linearGradient4291"
       inkscape:collect="always" />
    <linearGradient
       y2="14.808252"
       x2="15.05364"
       y1="14.808252"
       x1="0.13810679"
       spreadMethod="reflect"
       gradientTransform="matrix(1.0128213,0,0,1,-0.3860158,9.7656251e-2)"
       gradientUnits="userSpaceOnUse"
       id="linearGradient2822"
       xlink:href="#linearGradient54487"
       inkscape:collect="always" />
    <linearGradient
       y2="14.808252"
       x2="15.05364"
       y1="14.808252"
       x1="0.13810679"
       spreadMethod="reflect"
       gradientTransform="matrix(1,0,0,1.0128213,-0.2453883,-29.858745)"
       gradientUnits="userSpaceOnUse"
       id="linearGradient2820"
       xlink:href="#linearGradient54487"
       inkscape:collect="always" />
    <radialGradient
       r="14.051131"
       fy="-16.075825"
       fx="-16.657145"
       cy="-16.075825"
       cx="-16.657145"
       gradientTransform="matrix(1.2106494,3.8998741e-8,-4.3792597e-8,1.394612,4.0823089,6.3732263)"
       gradientUnits="userSpaceOnUse"
       id="radialGradient2818"
       xlink:href="#linearGradient14338"
       inkscape:collect="always" />
    <radialGradient
       r="14.051131"
       fy="-16.075825"
       fx="-16.657145"
       cy="-16.075825"
       cx="-16.657145"
       gradientTransform="matrix(1.2106494,3.8998741e-8,-4.3792597e-8,1.394612,33.249622,36.187002)"
       gradientUnits="userSpaceOnUse"
       id="radialGradient2816"
       xlink:href="#linearGradient14338"
       inkscape:collect="always" />
    <radialGradient
       r="14.051131"
       fy="-16.166603"
       fx="-17.173395"
       cy="-16.166603"
       cx="-17.173395"
       gradientTransform="matrix(1.2106494,3.8998741e-8,-4.3792597e-8,1.394612,33.249622,36.187002)"
       gradientUnits="userSpaceOnUse"
       id="radialGradient2814"
       xlink:href="#linearGradient36692"
       inkscape:collect="always" />
    <radialGradient
       r="14.051131"
       fy="-16.166603"
       fx="-17.173395"
       cy="-16.166603"
       cx="-17.173395"
       gradientTransform="matrix(1.2106494,3.8998741e-8,-4.3792597e-8,1.394612,33.249622,36.187002)"
       gradientUnits="userSpaceOnUse"
       id="radialGradient2812"
       xlink:href="#linearGradient36692"
       inkscape:collect="always" />
    <radialGradient
       r="14.051131"
       fy="-16.075825"
       fx="-16.657145"
       cy="-16.075825"
       cx="-16.657145"
       gradientTransform="matrix(1.2106494,3.8998741e-8,-4.3792597e-8,1.394612,4.0823089,6.3732263)"
       gradientUnits="userSpaceOnUse"
       id="radialGradient2810"
       xlink:href="#linearGradient14338"
       inkscape:collect="always" />
    <radialGradient
       r="14.051131"
       fy="-16.075825"
       fx="-16.657145"
       cy="-16.075825"
       cx="-16.657145"
       gradientTransform="matrix(1.2106494,3.8998741e-8,-4.3792597e-8,1.394612,33.249622,36.187002)"
       gradientUnits="userSpaceOnUse"
       id="radialGradient2808"
       xlink:href="#linearGradient14338"
       inkscape:collect="always" />
    <linearGradient
       y2="14.808252"
       x2="15.05364"
       y1="14.808252"
       x1="0.13810679"
       spreadMethod="reflect"
       gradientTransform="matrix(1.0128213,0,0,1,-0.3860158,9.7656251e-2)"
       gradientUnits="userSpaceOnUse"
       id="linearGradient2806"
       xlink:href="#linearGradient54487"
       inkscape:collect="always" />
    <linearGradient
       y2="14.808252"
       x2="15.05364"
       y1="14.808252"
       x1="0.13810679"
       spreadMethod="reflect"
       gradientTransform="matrix(1,0,0,1.0128213,-0.2453883,-29.858745)"
       gradientUnits="userSpaceOnUse"
       id="linearGradient2804"
       xlink:href="#linearGradient54487"
       inkscape:collect="always" />
    <linearGradient
       y2="14.808252"
       x2="15.05364"
       y1="14.808252"
       x1="0.13810679"
       spreadMethod="reflect"
       gradientTransform="matrix(1,0,0,1.0128213,-0.2453883,-29.858745)"
       gradientUnits="userSpaceOnUse"
       id="linearGradient2802"
       xlink:href="#linearGradient54487"
       inkscape:collect="always" />
    <linearGradient
       y2="14.808252"
       x2="15.05364"
       y1="14.808252"
       x1="0.13810679"
       spreadMethod="reflect"
       gradientTransform="matrix(1.0128213,0,0,1,-0.3860158,0)"
       gradientUnits="userSpaceOnUse"
       id="linearGradient2800"
       xlink:href="#linearGradient54487"
       inkscape:collect="always" />
    <radialGradient
       r="14.051131"
       fy="-16.075825"
       fx="-16.657145"
       cy="-16.075825"
       cx="-16.657145"
       gradientTransform="matrix(1.2106494,3.8998741e-8,-4.3792597e-8,1.394612,33.249622,36.187002)"
       gradientUnits="userSpaceOnUse"
       id="radialGradient2798"
       xlink:href="#linearGradient14338"
       inkscape:collect="always" />
    <radialGradient
       r="14.051131"
       fy="-16.075825"
       fx="-16.657145"
       cy="-16.075825"
       cx="-16.657145"
       gradientTransform="matrix(1.2106494,3.8998741e-8,-4.3792597e-8,1.394612,4.0823089,6.3732263)"
       gradientUnits="userSpaceOnUse"
       id="radialGradient2796"
       xlink:href="#linearGradient14338"
       inkscape:collect="always" />
    <radialGradient
       r="14.051131"
       fy="-16.166603"
       fx="-17.173395"
       cy="-16.166603"
       cx="-17.173395"
       gradientTransform="matrix(1.2106494,3.8998741e-8,-4.3792597e-8,1.394612,33.249622,36.187002)"
       gradientUnits="userSpaceOnUse"
       id="radialGradient2794"
       xlink:href="#linearGradient36692"
       inkscape:collect="always" />
    <linearGradient
       gradientTransform="matrix(1,0,0,1.0128213,-0.2453883,-29.858745)"
       y2="14.808252"
       x2="15.05364"
       y1="14.808252"
       x1="0.13810679"
       spreadMethod="reflect"
       gradientUnits="userSpaceOnUse"
       id="linearGradient2792"
       xlink:href="#linearGradient54487"
       inkscape:collect="always" />
    <linearGradient
       gradientTransform="matrix(1.0128213,0,0,1,-0.3860158,0)"
       spreadMethod="reflect"
       gradientUnits="userSpaceOnUse"
       y2="14.808252"
       x2="15.05364"
       y1="14.808252"
       x1="0.13810679"
       id="linearGradient2790"
       xlink:href="#linearGradient54487"
       inkscape:collect="always" />
    <radialGradient
       r="14.051131"
       fy="-16.075825"
       fx="-16.657145"
       cy="-16.075825"
       cx="-16.657145"
       gradientTransform="matrix(1.2106494,3.8998741e-8,-4.3792597e-8,1.394612,33.249622,36.187002)"
       gradientUnits="userSpaceOnUse"
       id="radialGradient2788"
       xlink:href="#linearGradient14338"
       inkscape:collect="always" />
    <radialGradient
       r="14.051131"
       fy="-16.166603"
       fx="-17.173395"
       cy="-16.166603"
       cx="-17.173395"
       gradientTransform="matrix(1.2106494,3.8998741e-8,-4.3792597e-8,1.394612,33.249622,36.187002)"
       gradientUnits="userSpaceOnUse"
       id="radialGradient2786"
       xlink:href="#linearGradient36692"
       inkscape:collect="always" />
    <radialGradient
       r="14.051131"
       fy="-16.075825"
       fx="-16.657145"
       cy="-16.075825"
       cx="-16.657145"
       gradientTransform="matrix(1.2106494,3.8998741e-8,-4.3792597e-8,1.394612,4.0823089,6.3732263)"
       gradientUnits="userSpaceOnUse"
       id="radialGradient2784"
       xlink:href="#linearGradient14338"
       inkscape:collect="always" />
    <radialGradient
       r="14.010153"
       fy="20.024515"
       fx="23.082907"
       cy="20.024515"
       cx="23.082907"
       gradientTransform="matrix(1.518724,1.408519,-1.4502012,1.6006237,-5.1837474,-89.174314)"
       gradientUnits="userSpaceOnUse"
       id="radialGradient2782"
       xlink:href="#linearGradient12924"
       inkscape:collect="always" />
    <radialGradient
       gradientUnits="userSpaceOnUse"
       xlink:href="#linearGradient4177"
       id="radialGradient2780"
       fy="15"
       fx="15"
       r="16"
       cy="15"
       cx="15" />
    <radialGradient
       gradientTransform="matrix(1,0,0,0.9895656,0,0.157532)"
       gradientUnits="userSpaceOnUse"
       xlink:href="#linearGradient5165"
       id="radialGradient2778"
       fy="15.097325"
       fx="15.028969"
       r="6.051754"
       cy="15.097325"
       cx="15.028969" />
    <radialGradient
       gradientUnits="userSpaceOnUse"
       xlink:href="#linearGradient4177"
       id="radialGradient2776"
       fy="15"
       fx="15"
       r="16"
       cy="15"
       cx="15" />
    <radialGradient
       gradientUnits="userSpaceOnUse"
       xlink:href="#linearGradient4177"
       id="radialGradient2774"
       fy="15"
       fx="15"
       r="16"
       cy="15"
       cx="15" />
    <radialGradient
       gradientTransform="matrix(1,0,0,0.9895656,0,0.157532)"
       gradientUnits="userSpaceOnUse"
       xlink:href="#linearGradient5165"
       id="radialGradient2772"
       fy="15.097325"
       fx="15.028969"
       r="6.051754"
       cy="15.097325"
       cx="15.028969" />
    <radialGradient
       gradientUnits="userSpaceOnUse"
       xlink:href="#linearGradient4177"
       id="radialGradient2770"
       fy="15"
       fx="15"
       r="16"
       cy="15"
       cx="15" />
    <radialGradient
       gradientTransform="matrix(1,0,0,0.9895656,0,0.157532)"
       gradientUnits="userSpaceOnUse"
       xlink:href="#linearGradient5165"
       id="radialGradient2768"
       fy="15.097325"
       fx="15.028969"
       r="6.051754"
       cy="15.097325"
       cx="15.028969" />
    <radialGradient
       gradientUnits="userSpaceOnUse"
       xlink:href="#linearGradient4177"
       id="radialGradient2766"
       fy="15"
       fx="15"
       r="16"
       cy="15"
       cx="15" />
    <linearGradient
       id="linearGradient2760">
      <stop
         id="stop2762"
         offset="0"
         style="stop-color:#ffffff;stop-opacity:1" />
      <stop
         id="stop2764"
         offset="1"
         style="stop-color:#ffffff;stop-opacity:0" />
    </linearGradient>
    <linearGradient
       id="linearGradient2752">
      <stop
         id="stop2754"
         offset="0"
         style="stop-color:#ffff00;stop-opacity:1" />
      <stop
         id="stop2756"
         offset="0.5"
         style="stop-color:#ffff00;stop-opacity:1" />
      <stop
         id="stop2758"
         offset="1"
         style="stop-color:#ffffff;stop-opacity:0" />
    </linearGradient>
    <linearGradient
       id="linearGradient2746">
      <stop
         id="stop2748"
         offset="0"
         style="stop-color:#ffff80;stop-opacity:1" />
      <stop
         id="stop2750"
         offset="1"
         style="stop-color:#00ffff;stop-opacity:1" />
    </linearGradient>
    <linearGradient
       id="linearGradient2740">
      <stop
         id="stop2742"
         offset="0"
         style="stop-color:#ffff00;stop-opacity:1" />
      <stop
         id="stop2744"
         offset="1"
         style="stop-color:#ffb900;stop-opacity:1" />
    </linearGradient>
    <linearGradient
       id="linearGradient2734">
      <stop
         id="stop2736"
         offset="0"
         style="stop-color:#f0f0f0;stop-opacity:0.32478634;" />
      <stop
         id="stop2738"
         offset="1"
         style="stop-color:#e6e6e6;stop-opacity:1;" />
    </linearGradient>
    <linearGradient
       id="linearGradient2726">
      <stop
         style="stop-color:#000000;stop-opacity:0;"
         offset="0"
         id="stop2728" />
      <stop
         id="stop2730"
         offset="0.5"
         style="stop-color:#00b9ff;stop-opacity:0;" />
      <stop
         style="stop-color:#6687ac;stop-opacity:1;"
         offset="1"
         id="stop2732" />
    </linearGradient>
    <linearGradient
       id="linearGradient2718">
      <stop
         id="stop2720"
         offset="0"
         style="stop-color:#f0f0f0;stop-opacity:0;" />
      <stop
         style="stop-color:#646464;stop-opacity:0;"
         offset="0.5"
         id="stop2722" />
      <stop
         id="stop2724"
         offset="1"
         style="stop-color:#e6e6e6;stop-opacity:1;" />
    </linearGradient>
    <linearGradient
       id="linearGradient2712">
      <stop
         id="stop2714"
         offset="0"
         style="stop-color:#004e83;stop-opacity:0.31623933;" />
      <stop
         id="stop2716"
         offset="1"
         style="stop-color:#2b646d;stop-opacity:0.75213677;" />
    </linearGradient>
    <linearGradient
       id="linearGradient2704">
      <stop
         id="stop2706"
         offset="0"
         style="stop-color:#f0f0f0;stop-opacity:0.63247865;" />
      <stop
         style="stop-color:#ffffff;stop-opacity:0;"
         offset="0.5"
         id="stop2708" />
      <stop
         id="stop2710"
         offset="1"
         style="stop-color:#ffffff;stop-opacity:0;" />
    </linearGradient>
    <linearGradient
       id="linearGradient2694">
      <stop
         style="stop-color:#ffffff;stop-opacity:0;"
         offset="0"
         id="stop2696" />
      <stop
         id="stop2698"
         offset="0.5"
         style="stop-color:#ffffff;stop-opacity:0;" />
      <stop
         style="stop-color:#000000;stop-opacity:0;"
         offset="0.75"
         id="stop2700" />
      <stop
         style="stop-color:#323632;stop-opacity:1;"
         offset="1"
         id="stop2702" />
    </linearGradient>
    <linearGradient
       id="linearGradient2686">
      <stop
         id="stop2688"
         offset="0"
         style="stop-color:#000000;stop-opacity:0;" />
      <stop
         style="stop-color:#fff7ff;stop-opacity:0;"
         offset="0.5"
         id="stop2690" />
      <stop
         id="stop2692"
         offset="1"
         style="stop-color:#c5efff;stop-opacity:1;" />
    </linearGradient>
    <linearGradient
       id="linearGradient2676">
      <stop
         id="stop2678"
         offset="0"
         style="stop-color:#ffffff;stop-opacity:0.28448275;" />
      <stop
         style="stop-color:#ffffff;stop-opacity:0;"
         offset="0.5"
         id="stop2680" />
      <stop
         id="stop2682"
         offset="0.75"
         style="stop-color:#aeaeae;stop-opacity:0;" />
      <stop
         id="stop2684"
         offset="1"
         style="stop-color:#d6ffff;stop-opacity:1;" />
    </linearGradient>
    <linearGradient
       id="linearGradient2670">
      <stop
         style="stop-color:#000000;stop-opacity:0;"
         offset="0"
         id="stop2672" />
      <stop
         style="stop-color:#323232;stop-opacity:0.95689654;"
         offset="1"
         id="stop2674" />
    </linearGradient>
    <linearGradient
       id="linearGradient2658">
      <stop
         id="stop2660"
         offset="0"
         style="stop-color:#ffffff;stop-opacity:0.64957267;" />
      <stop
         style="stop-color:#c4fdff;stop-opacity:0;"
         offset="0.5"
         id="stop2662" />
      <stop
         id="stop2664"
         offset="0.75"
         style="stop-color:#ffffc3;stop-opacity:0;" />
      <stop
         style="stop-color:#ffffc3;stop-opacity:0;"
         offset="0.875"
         id="stop2666" />
      <stop
         id="stop2668"
         offset="1"
         style="stop-color:#ffffc3;stop-opacity:0;" />
    </linearGradient>
    <linearGradient
       id="linearGradient2646">
      <stop
         style="stop-color:#ffffff;stop-opacity:1;"
         offset="0"
         id="stop2648" />
      <stop
         id="stop2650"
         offset="0.5"
         style="stop-color:#00005e;stop-opacity:0.08235294;" />
      <stop
         style="stop-color:#ffffc3;stop-opacity:0;"
         offset="0.75"
         id="stop2652" />
      <stop
         id="stop2654"
         offset="0.875"
         style="stop-color:#ffffc3;stop-opacity:0;" />
      <stop
         style="stop-color:#ffffc3;stop-opacity:0;"
         offset="1"
         id="stop2656" />
    </linearGradient>
    <linearGradient
       id="linearGradient2634">
      <stop
         id="stop2636"
         offset="0"
         style="stop-color:#ffffff;stop-opacity:1;" />
      <stop
         style="stop-color:#00003f;stop-opacity:0.08235294;"
         offset="0.5"
         id="stop2638" />
      <stop
         id="stop2640"
         offset="0.75"
         style="stop-color:#ffffc3;stop-opacity:0;" />
      <stop
         style="stop-color:#ffffc3;stop-opacity:0;"
         offset="0.875"
         id="stop2642" />
      <stop
         id="stop2644"
         offset="1"
         style="stop-color:#ffffc3;stop-opacity:0;" />
    </linearGradient>
    <linearGradient
       id="linearGradient2628">
      <stop
         id="stop2630"
         offset="0"
         style="stop-color:#ff8b00;stop-opacity:1;" />
      <stop
         id="stop2632"
         offset="1"
         style="stop-color:#ffff00;stop-opacity:1;" />
    </linearGradient>
  </defs>
  <rect
     style="opacity:1;fill:#ffff00;fill-opacity:1;fill-rule:nonzero;stroke:#5a0000;stroke-width:0;stroke-linecap:round;stroke-linejoin:bevel;stroke-miterlimit:4;stroke-dasharray:none;stroke-dashoffset:0;stroke-opacity:0"
     id="rect3168"
     width="0.30456853"
     height="0"
     x="27.639593"
     y="2.4365482"
     ry="0" />
  <path
     id="path50607"
     d="M 0.025861919,24.999999 L 0.025861919,24.869117 C 3.8846065,24.862004 6.9790371,24.803457 6.9790371,24.712058 C 6.9790371,24.62066 3.8846065,24.535937 0.025861919,24.528823 L 0.025861919,23.220003 C 1.2742884,23.241677 2.6625766,23.272356 4.3488098,23.272356 C 6.4210022,23.272356 8.2831445,23.251369 9.6353063,23.220003 C 10.985761,23.186212 11.822821,23.137189 11.822821,23.089121 C 11.822821,22.992987 8.4931947,22.905887 4.3488098,22.905887 C 2.6625766,22.905887 1.2742884,22.936566 0.025861919,22.958238 L 0.025861919,22.2253 C 0.13690105,22.225412 0.20004731,22.2253 0.31232224,22.2253 C 4.4567073,22.2253 7.7863349,22.138198 7.7863349,22.042064 C 7.7863349,21.945931 4.4567073,21.85883 0.31232224,21.85883 C 0.20004731,21.85883 0.13690105,21.858717 0.025861919,21.85883 L 0.025861919,19.947952 C 1.3739357,19.993094 3.5107196,20.026482 6.0675721,20.026482 C 10.211957,20.026482 13.541584,19.93938 13.541584,19.843246 C 13.541584,19.747113 10.211957,19.686188 6.0675721,19.686188 C 3.5110796,19.686188 1.3739998,19.69341 0.025861919,19.73854 L 0.025861919,19.084131 C 3.6279322,19.071518 6.5363255,19.014253 6.5363255,18.927072 C 6.5363255,18.839891 3.6279322,18.756448 0.025861919,18.743838 L 0.025861919,18.272662 C 0.096476563,18.272707 0.13705187,18.272662 0.20815492,18.272662 C 4.3525398,18.272662 7.6821673,18.211738 7.6821673,18.115603 C 7.6821673,18.019469 4.3525398,17.932368 0.20815492,17.932368 C 0.13705771,17.932368 0.096471546,17.932323 0.025861919,17.932368 L 0.025861919,17.304134 C 0.17162963,17.397247 3.3968247,17.48737 7.4477904,17.48737 C 11.592175,17.48737 14.921803,17.400268 14.921803,17.304134 C 14.921803,17.208001 11.592175,17.1209 7.4477904,17.1209 C 3.3958772,17.1209 0.17019797,17.210992 0.025861919,17.304134 L 0.025861919,16.545019 C 0.26465941,16.545548 0.4059021,16.545019 0.65086635,16.545019 C 4.7952513,16.545019 8.1509206,16.484094 8.1509206,16.38796 C 8.1509206,16.291827 4.7952513,16.204726 0.65086635,16.204726 C 0.4059021,16.204726 0.26465941,16.204198 0.025861919,16.204726 L 0.025861919,15.602668 C 0.96636946,15.612517 1.7359416,15.628844 2.838382,15.628844 C 6.9827671,15.628844 10.338435,15.541744 10.338435,15.445609 C 10.338435,15.349476 6.9827671,15.288551 2.838382,15.288551 C 1.7359416,15.288551 0.96636946,15.304879 0.025861919,15.314728 L 0.025861919,14.110613 C 3.6974243,14.099411 6.6404929,14.041874 6.6404929,13.953554 C 6.6404929,13.865233 3.6974243,13.781521 0.025861919,13.770319 L 0.025861919,12.278265 C 0.39576533,12.27956 0.62949282,12.278265 1.0154522,12.278265 C 5.1598373,12.278265 8.4894647,12.191164 8.4894647,12.09503 C 8.4894647,11.998895 5.1598373,11.911795 1.0154522,11.911795 C 0.62949282,11.911795 0.39576533,11.9105 0.025861919,11.911795 L 0.025861919,11.28356 C 1.374779,11.314382 3.2084955,11.335914 5.2602747,11.335914 C 9.4046596,11.335914 12.734286,11.27499 12.734286,11.178855 C 12.734286,11.082722 9.4046596,10.99562 5.2602747,10.99562 C 3.2084955,10.99562 1.374779,11.017152 0.025861919,11.047973 L 0.025861919,9.7915054 C 1.3914909,9.8260463 3.3056024,9.8438588 5.4946514,9.8438588 C 9.6390363,9.8438588 12.968663,9.7567571 12.968663,9.6606229 C 12.968663,9.5644905 9.6390363,9.5035655 5.4946514,9.5035655 C 3.3056024,9.5035655 1.3914909,9.5213771 0.025861919,9.555918 L 0.025861919,8.6659197 C 2.5586091,8.6381763 4.5831865,8.5783705 4.5831865,8.5088613 C 4.5831865,8.4393538 2.5586091,8.379548 0.025861919,8.3518038 L 0.025861919,7.383277 C 1.0808268,7.3964313 2.0209712,7.4094533 3.3071357,7.4094533 C 7.4515205,7.4094533 10.781147,7.3223525 10.781147,7.2262185 C 10.781147,7.1300853 7.4515205,7.0691601 3.3071357,7.0691601 C 2.0209712,7.0691601 1.0808268,7.0821821 0.025861919,7.0953364 L 0.025861919,6.5718083 C 1.0254657,6.5832589 1.8784559,6.5979847 3.0727586,6.5979847 C 7.2171438,6.5979847 10.54677,6.5108838 10.54677,6.4147498 C 10.54677,6.3186167 7.2171438,6.2576914 3.0727586,6.2576914 C 1.8784559,6.2576914 1.0254657,6.2724172 0.025861919,6.2838678 L 0.025861919,3.9803433 C 1.3137569,4.0324533 3.6207564,4.0588726 6.4061162,4.0588726 C 10.550501,4.0588726 13.90617,3.9717717 13.90617,3.8756377 C 13.906172,3.7795046 10.550501,3.7185792 6.4061162,3.7185792 C 3.6207564,3.7185792 1.3137569,3.7449978 0.025861919,3.7971085 L 0.025861919,3.2212275 C 0.87474705,3.2289506 1.5300859,3.2474039 2.499838,3.2474039 C 6.644223,3.2474039 9.9738504,3.160303 9.9738504,3.064169 C 9.9738504,2.9680359 6.644223,2.9071106 2.499838,2.9071106 C 1.5300859,2.9071106 0.87474705,2.9255639 0.025861919,2.933287 L 0.025861919,1.5721138 C 1.374779,1.6029349 3.2084955,1.6244666 5.2602747,1.6244666 C 9.4046596,1.6244666 12.734286,1.5373658 12.734286,1.4412317 C 12.734286,1.3450985 9.4046596,1.2841733 5.2602747,1.2841733 C 3.2084955,1.2841733 1.374779,1.3057049 0.025861919,1.3365261 L 0.025861919,0.91770346 C 1.0530208,0.92997505 1.9637348,0.94387996 3.202968,0.94387996 C 7.347353,0.94387996 10.67698,0.85677905 10.67698,0.76064506 C 10.67698,0.66451188 7.347353,0.5774102 3.202968,0.5774102 C 1.9637348,0.5774102 1.0530208,0.59131512 0.025861919,0.60358661 L 0.025861919,0.0015292234 L 25,0.0015292234 L 25,0.65593943 C 23.687026,0.60624363 21.431011,0.5774102 18.723913,0.5774102 C 14.579529,0.5774102 11.2499,0.66451105 11.2499,0.76064506 C 11.2499,0.85677905 14.579529,0.94387996 18.723913,0.94387996 C 21.431011,0.94387996 23.687026,0.91504646 25,0.86535063 L 25,1.1794676 C 23.945033,1.1663132 23.004891,1.1532912 21.718726,1.1532912 C 17.574342,1.1532912 14.244714,1.240392 14.244714,1.3365261 C 14.244714,1.4326601 17.574342,1.519761 21.718726,1.519761 C 23.004891,1.519761 23.945034,1.5067389 25,1.4935845 L 25,3.2735803 C 24.118797,3.2004958 21.356115,3.1426983 17.916616,3.1426983 C 13.772231,3.1426983 10.442604,3.2036227 10.442604,3.2997568 C 10.442604,3.3958907 13.772231,3.4829916 17.916616,3.4829916 C 21.354857,3.4829916 24.117655,3.425153 25,3.3521095 L 25,3.7447557 C 24.218647,3.7383679 23.63829,3.7185792 22.7604,3.7185792 C 18.616016,3.7185792 15.286389,3.7795037 15.286389,3.8756377 C 15.286389,3.9717717 18.616016,4.0588726 22.7604,4.0588726 C 23.63829,4.0588726 24.218647,4.0390841 25,4.0326962 L 25,4.5562248 C 22.833177,4.5865526 21.145805,4.6238847 21.145805,4.6871069 C 21.145805,4.750329 22.833177,4.8138367 25,4.8441653 L 25,6.5718083 C 24.670245,6.5584662 24.371603,6.5564266 23.906242,6.5456319 C 23.413142,6.5335422 23.004077,6.5271182 22.369772,6.5194554 C 21.215952,6.5026012 20.089633,6.4932791 18.619745,6.4932791 C 16.547552,6.4932791 14.664174,6.5183842 13.307207,6.5456319 C 12.631126,6.5613142 12.096203,6.5772102 11.718654,6.5979847 C 11.339304,6.6172153 11.119692,6.6263037 11.119692,6.6503375 C 11.119692,6.6984049 11.955045,6.7498548 13.307207,6.7812196 C 14.664174,6.8150118 16.547554,6.8335723 18.619745,6.8335723 C 20.012425,6.8335723 21.283866,6.8205143 22.369772,6.8073959 C 22.842564,6.8004896 23.513222,6.7903365 23.906242,6.7812196 C 24.25731,6.7726119 24.732198,6.7658789 25,6.7550431 L 25,7.3571005 C 23.630002,7.3186929 21.62353,7.3047477 19.296833,7.3047477 C 15.152449,7.3047477 11.822821,7.3656721 11.822821,7.4618062 C 11.822821,7.5579402 15.152449,7.645041 19.296833,7.645041 C 21.623529,7.645041 23.630002,7.631095 25,7.5926882 L 25,9.1894488 C 23.751574,9.1677755 22.363284,9.1370955 20.677052,9.1370955 C 16.532668,9.1370955 13.203039,9.2241963 13.203039,9.3203296 C 13.203039,9.4164638 16.532667,9.5035655 20.677052,9.5035655 C 22.363284,9.5035655 23.751573,9.4728855 25,9.4512121 L 25,10.943267 C 23.733581,10.920435 22.308251,10.890915 20.572884,10.890915 C 16.4285,10.890915 13.098873,10.95184 13.098873,11.047973 C 13.098873,11.144107 16.4285,11.231208 20.572884,11.231208 C 22.308251,11.231208 23.733581,11.201689 25,11.178855 L 25,15.183846 C 23.945033,15.170692 23.004891,15.157669 21.718726,15.157669 C 17.574342,15.157669 14.244714,15.24477 14.244714,15.340904 C 14.244714,15.437038 17.574342,15.497963 21.718726,15.497963 C 23.004891,15.497963 23.945034,15.48494 25,15.471786 L 25,19.267365 C 23.691795,19.241289 22.102396,19.215013 20.234341,19.215013 C 16.089955,19.215013 12.734286,19.275937 12.734286,19.372071 C 12.734286,19.468205 16.089956,19.555306 20.234341,19.555306 C 22.102396,19.555306 23.691795,19.52903 25,19.502953 L 25,20.183539 C 23.768296,20.162856 22.450765,20.131187 20.807261,20.131187 C 16.662878,20.131187 13.307207,20.218288 13.307207,20.314422 C 13.307207,20.410556 16.662877,20.47148 20.807261,20.47148 C 22.450734,20.47148 23.768308,20.465988 25,20.445303 L 25,21.701771 C 23.630002,21.663364 21.62353,21.649418 19.296833,21.649418 C 15.152449,21.649418 11.822821,21.710343 11.822821,21.806477 C 11.822821,21.902611 15.152449,21.989712 19.296833,21.989712 C 21.62353,21.989712 23.630002,21.975767 25,21.937359 L 25,22.722651 C 23.751574,22.700977 22.363284,22.670298 20.677052,22.670298 C 16.532668,22.670298 13.203039,22.7574 13.203039,22.853533 C 13.203039,22.949667 16.532667,23.036768 20.677052,23.036768 C 22.363284,23.036768 23.751573,23.006089 25,22.984415 L 25,24.999999 L 0.025861919,24.999999 z M 14.921803,24.188531 C 19.066187,24.188531 22.421857,24.101429 22.421857,24.005295 C 22.421857,23.909162 19.066187,23.848237 14.921803,23.848237 C 10.777418,23.848237 7.4477904,23.909162 7.4477904,24.005295 C 7.4477904,24.101429 10.777418,24.188531 14.921803,24.188531 z M 10.10406,21.178243 C 14.248445,21.178243 17.578072,21.091142 17.578072,20.995008 C 17.578072,20.898874 14.248445,20.83795 10.10406,20.83795 C 5.9596747,20.83795 2.6040053,20.898874 2.6040053,20.995008 C 2.6040053,21.091142 5.9596747,21.178243 10.10406,21.178243 z M 15.494724,18.639132 C 19.639109,18.639132 22.994777,18.552031 22.994777,18.455897 C 22.994776,18.359763 19.639108,18.272662 15.494724,18.272662 C 11.35034,18.272662 8.0207116,18.359763 8.0207116,18.455897 C 8.0207116,18.55203 11.350339,18.639132 15.494724,18.639132 z M 16.43223,17.016194 C 20.576615,17.016194 23.906242,16.929093 23.906242,16.832959 C 23.906242,16.736825 20.576614,16.675901 16.43223,16.675901 C 12.287846,16.675901 8.9582188,16.736825 8.9582188,16.832959 C 8.9582188,16.929093 12.287845,17.016194 16.43223,17.016194 z M 16.197853,16.10002 C 20.342238,16.10002 23.671865,16.012919 23.671865,15.916785 C 23.671865,15.820651 20.342238,15.73355 16.197853,15.73355 C 12.053469,15.73355 8.7238413,15.820651 8.7238413,15.916785 C 8.7238413,16.012919 12.053469,16.10002 16.197853,16.10002 z M 9.166553,14.686494 C 13.310938,14.686494 16.666606,14.625569 16.666606,14.529435 C 16.666606,14.433302 13.310938,14.3462 9.166553,14.3462 C 5.022168,14.3462 1.6925405,14.433302 1.6925405,14.529435 C 1.6925405,14.625569 5.022168,14.686494 9.166553,14.686494 z M 15.494724,13.534732 C 19.639109,13.534732 22.994777,13.473808 22.994777,13.377673 C 22.994776,13.281539 19.639108,13.194439 15.494724,13.194439 C 11.35034,13.194439 8.0207116,13.281539 8.0207116,13.377673 C 8.0207116,13.473808 11.350339,13.534732 15.494724,13.534732 z M 15.286389,12.723264 C 19.430773,12.723264 22.7604,12.662339 22.7604,12.566204 C 22.7604,12.470071 19.430773,12.38297 15.286389,12.38297 C 11.142004,12.38297 7.7863349,12.470071 7.7863349,12.566204 C 7.7863349,12.662339 11.142004,12.723264 15.286389,12.723264 z M 15.85931,11.911795 C 20.003693,11.911795 23.333322,11.85087 23.333322,11.754736 C 23.333322,11.658602 20.003693,11.571501 15.85931,11.571501 C 11.714924,11.571501 8.3592547,11.658602 8.3592547,11.754736 C 8.3592547,11.85087 11.714925,11.911795 15.85931,11.911795 z M 12.291575,10.315034 C 16.43596,10.315034 19.765588,10.227933 19.765588,10.131799 C 19.765588,10.035666 16.43596,9.9485638 12.291575,9.9485638 C 8.14719,9.9485638 4.7915214,10.035665 4.7915214,10.131799 C 4.7915214,10.227933 8.14719,10.315034 12.291575,10.315034 z M 13.77596,8.5612147 C 17.920347,8.5612147 21.249972,8.5002897 21.249972,8.4041563 C 21.249972,8.3080238 17.920346,8.220922 13.77596,8.220922 C 9.6315771,8.220922 6.3019487,8.3080229 6.3019487,8.4041563 C 6.3019487,8.5002897 9.6315763,8.5612147 13.77596,8.5612147 z M 13.77596,5.917398 C 17.920347,5.917398 21.249972,5.8302973 21.249972,5.7341632 C 21.249972,5.63803 17.920346,5.5509284 13.77596,5.5509284 C 9.6315771,5.5509284 6.3019487,5.6380292 6.3019487,5.7341632 C 6.3019487,5.8302973 9.6315763,5.917398 13.77596,5.917398 z M 11.2499,4.8703417 C 15.394286,4.8703417 18.723913,4.7832409 18.723913,4.6871069 C 18.723912,4.5909736 15.394286,4.5300484 11.2499,4.5300484 C 7.1055162,4.5300484 3.775889,4.5909728 3.775889,4.6871069 C 3.775889,4.7832409 7.1055162,4.8703417 11.2499,4.8703417 z M 10.54677,2.5406408 C 14.691156,2.5406408 18.046825,2.4797164 18.046825,2.3835824 C 18.046825,2.2874493 14.691156,2.2003476 10.54677,2.2003476 C 6.4023862,2.2003476 3.0727586,2.2874485 3.0727586,2.3835824 C 3.0727586,2.4797164 6.4023862,2.5406408 10.54677,2.5406408 z "
     style="opacity:0.45698924;fill:#ffffc3;fill-opacity:0.8064516;fill-rule:nonzero;stroke:#5a0000;stroke-width:0;stroke-linecap:round;stroke-linejoin:bevel;stroke-miterlimit:4;stroke-dasharray:none;stroke-dashoffset:0;stroke-opacity:0" />
  <rect
     style="fill:#0094c0;fill-opacity:1;fill-rule:nonzero;stroke:#5a0000;stroke-width:0;stroke-linecap:round;stroke-linejoin:bevel;stroke-miterlimit:4;stroke-dasharray:none;stroke-dashoffset:0;stroke-opacity:0"
     id="rect2184"
     width="24.924271"
     height="24.885061"
     x="0"
     y="1.7014313e-15" />
  <path
     style="opacity:0.13978493;fill:#ffffff;fill-opacity:0.62365591;fill-rule:nonzero;stroke:#5a0000;stroke-width:0;stroke-linecap:round;stroke-linejoin:bevel;stroke-miterlimit:4;stroke-dasharray:none;stroke-dashoffset:0;stroke-opacity:0"
     d="M 0,-9.1324288e-16 L 0,0.13028819 C 3.8510393,0.13736929 6.9392921,0.19565013 6.9392921,0.28663413 C 6.9392921,0.37761787 3.8510393,0.46195621 0,0.46903805 L 0,1.7719213 C 1.2459341,1.7503454 2.6314506,1.7198059 4.3143162,1.7198059 C 6.382371,1.7198059 8.2407959,1.7406979 9.5902563,1.7719213 C 10.938016,1.8055593 11.773405,1.8543601 11.773405,1.9022095 C 11.773405,1.9979065 8.4504263,2.0846131 4.3143162,2.0846131 C 2.6314506,2.0846131 1.2459341,2.0540727 0,2.0324978 L 0,2.7621121 C 0.11081758,2.7619996 0.17383631,2.7621121 0.28588849,2.7621121 C 4.421998,2.7621121 7.7449774,2.8488179 7.7449774,2.9445157 C 7.7449774,3.0402128 4.421998,3.1269193 0.28588849,3.1269193 C 0.17383631,3.1269193 0.11081758,3.127031 0,3.1269193 L 0,5.0291281 C 1.3453824,4.9841906 3.4778994,4.9509551 6.0296463,4.9509551 C 10.165756,4.9509551 13.488735,5.0376609 13.488735,5.1333588 C 13.488735,5.2290566 10.165756,5.2897047 6.0296463,5.2897047 C 3.4782584,5.2897047 1.3454463,5.2825153 0,5.2375895 L 0,5.8890308 C 3.5948776,5.9015852 6.4974637,5.9585909 6.4974637,6.0453767 C 6.4974637,6.1321624 3.5948776,6.2152268 0,6.2277803 L 0,6.6968181 C 0.070473619,6.6967731 0.11096765,6.6968181 0.18192881,6.6968181 C 4.3180392,6.6968181 7.6410184,6.7574661 7.6410184,6.8531641 C 7.6410184,6.948862 4.3180392,7.0355676 0.18192881,7.0355676 C 0.11097263,7.0355676 0.070468644,7.0356126 0,7.0355676 L 0,7.6609514 C 0.14547689,7.5682619 3.3642312,7.4785478 7.4071094,7.4785478 C 11.54322,7.4785478 14.866198,7.5652534 14.866198,7.6609514 C 14.866198,7.7566492 11.54322,7.8433549 7.4071094,7.8433549 C 3.363286,7.8433549 0.14404743,7.7536715 0,7.6609514 L 0,8.4166238 C 0.23832014,8.416098 0.37928148,8.4166238 0.62375641,8.4166238 C 4.7598667,8.4166238 8.1088358,8.4772713 8.1088358,8.5729688 C 8.1088358,8.6686672 4.7598667,8.755373 0.62375641,8.755373 C 0.37928148,8.755373 0.23832014,8.7558996 0,8.755373 L 0,9.3546988 C 0.93862955,9.3448946 1.7066655,9.3286413 2.8069046,9.3286413 C 6.9430141,9.3286413 10.291984,9.4153471 10.291984,9.5110446 C 10.291984,9.6067429 6.9430141,9.6673913 2.8069046,9.6673913 C 1.7066655,9.6673913 0.93862955,9.6511379 0,9.6413329 L 0,10.839985 C 3.6642309,10.851136 6.6014233,10.908411 6.6014233,10.996331 C 6.6014233,11.084252 3.6642309,11.167584 0,11.178735 L 0,12.664021 C 0.36916502,12.662732 0.60242569,12.664021 0.98761488,12.664021 C 5.1237244,12.664021 8.4467038,12.750727 8.4467038,12.846424 C 8.4467038,12.942123 5.1237244,13.028829 0.98761488,13.028829 C 0.60242569,13.028829 0.36916502,13.030118 0,13.028829 L 0,13.654212 C 1.3462239,13.623531 3.1762795,13.602097 5.2239611,13.602097 C 9.3600713,13.602097 12.68305,13.662744 12.68305,13.758443 C 12.68305,13.85414 9.3600713,13.940846 5.2239611,13.940846 C 3.1762795,13.940846 1.3462239,13.919412 0,13.888731 L 0,15.139499 C 1.3629023,15.105114 3.2731914,15.087383 5.4578702,15.087383 C 9.5939796,15.087383 12.916959,15.174089 12.916959,15.269786 C 12.916959,15.365484 9.5939796,15.426133 5.4578702,15.426133 C 3.2731914,15.426133 1.3629023,15.408402 0,15.374018 L 0,16.259978 C 2.52769,16.287595 4.5482245,16.34713 4.5482245,16.416324 C 4.5482245,16.485517 2.52769,16.545051 0,16.572669 L 0,17.536803 C 1.0528582,17.523708 1.9911253,17.510745 3.274722,17.510745 C 7.4108315,17.510745 10.733812,17.59745 10.733812,17.693148 C 10.733812,17.788846 7.4108315,17.849495 3.274722,17.849495 C 1.9911253,17.849495 1.0528582,17.836531 0,17.823437 L 0,18.344589 C 0.99760779,18.333192 1.8488954,18.318533 3.0408137,18.318533 C 7.1769232,18.318533 10.499903,18.405238 10.499903,18.500936 C 10.499903,18.596633 7.1769232,18.657282 3.0408137,18.657282 C 1.8488954,18.657282 0.99760779,18.642623 0,18.631224 L 0,20.924297 C 1.2853238,20.872423 3.5877162,20.846125 6.3675152,20.846125 C 10.503625,20.846125 13.852594,20.932831 13.852594,21.028528 C 13.852595,21.124225 10.503625,21.184874 6.3675152,21.184874 C 3.5877162,21.184874 1.2853238,21.158576 0,21.106701 L 0,21.67997 C 0.84719005,21.672282 1.5012212,21.653912 2.4690367,21.653912 C 6.6051462,21.653912 9.9281254,21.740618 9.9281254,21.836316 C 9.9281254,21.932012 6.6051462,21.992662 2.4690367,21.992662 C 1.5012212,21.992662 0.84719005,21.974292 0,21.966603 L 0,23.321602 C 1.3462239,23.290921 3.1762795,23.269487 5.2239611,23.269487 C 9.3600713,23.269487 12.68305,23.356192 12.68305,23.45189 C 12.68305,23.547587 9.3600713,23.608237 5.2239611,23.608237 C 3.1762795,23.608237 1.3462239,23.586802 0,23.556122 L 0,23.973044 C 1.0251082,23.960828 1.9340044,23.946986 3.1707623,23.946986 C 7.3068718,23.946986 10.629852,24.033692 10.629852,24.129389 C 10.629852,24.225087 7.3068718,24.311793 3.1707623,24.311793 C 1.9340044,24.311793 1.0251082,24.297952 0,24.285736 L 0,24.885062 L 24.924272,24.885062 L 24.924272,24.233621 C 23.61392,24.28309 21.362408,24.311793 18.660717,24.311793 C 14.524608,24.311793 11.201628,24.225087 11.201628,24.129389 C 11.201628,24.033692 14.524608,23.946986 18.660717,23.946986 C 21.362408,23.946986 23.61392,23.975688 24.924272,24.025159 L 24.924272,23.712467 C 23.871413,23.725562 22.933147,23.738525 21.649551,23.738525 C 17.513441,23.738525 14.190462,23.651819 14.190462,23.556122 C 14.190462,23.460423 17.513441,23.373718 21.649551,23.373718 C 22.933147,23.373718 23.871414,23.386681 24.924272,23.399775 L 24.924272,21.627855 C 24.044827,21.700607 21.287662,21.758143 17.855032,21.758143 C 13.718921,21.758143 10.395942,21.697495 10.395942,21.601797 C 10.395942,21.506099 13.718921,21.419393 17.855032,21.419393 C 21.286408,21.419393 24.04369,21.476969 24.924272,21.549682 L 24.924272,21.158817 C 24.144479,21.165175 23.565281,21.184874 22.689144,21.184874 C 18.553034,21.184874 15.230057,21.124226 15.230057,21.028528 C 15.230057,20.932831 18.553034,20.846125 22.689144,20.846125 C 23.565281,20.846125 24.144479,20.865824 24.924272,20.872182 L 24.924272,20.35103 C 22.761776,20.320838 21.077772,20.283677 21.077772,20.220742 C 21.077772,20.157806 22.761776,20.094586 24.924272,20.064395 L 24.924272,18.344589 C 24.595177,18.357872 24.297131,18.359903 23.832699,18.370648 C 23.340583,18.382683 22.932336,18.389078 22.299297,18.396706 C 21.147781,18.413483 20.02371,18.422763 18.556758,18.422763 C 16.488702,18.422763 14.609083,18.397772 13.254827,18.370648 C 12.580095,18.355037 12.046241,18.339213 11.669446,18.318533 C 11.290852,18.299389 11.071679,18.290342 11.071679,18.266418 C 11.071679,18.218568 11.905365,18.167352 13.254827,18.136129 C 14.609083,18.102489 16.488704,18.084013 18.556758,18.084013 C 19.946658,18.084013 21.215558,18.097013 22.299297,18.110071 C 22.771144,18.116946 23.440462,18.127053 23.832699,18.136129 C 24.183065,18.144697 24.657007,18.151399 24.924272,18.162186 L 24.924272,17.56286 C 23.557011,17.601093 21.554545,17.614975 19.232493,17.614975 C 15.096383,17.614975 11.773405,17.554328 11.773405,17.45863 C 11.773405,17.362932 15.096384,17.276226 19.232493,17.276226 C 21.554544,17.276226 23.557011,17.290109 24.924272,17.328342 L 24.924272,15.738824 C 23.678338,15.760399 22.292822,15.79094 20.609956,15.79094 C 16.473848,15.79094 13.150868,15.704234 13.150868,15.608536 C 13.150868,15.512838 16.473848,15.426133 20.609956,15.426133 C 22.292822,15.426133 23.678338,15.456674 24.924272,15.478248 L 24.924272,13.992961 C 23.660382,14.015691 22.237897,14.045077 20.505998,14.045077 C 16.369887,14.045077 13.046908,13.984429 13.046908,13.888731 C 13.046908,13.793033 16.369887,13.706328 20.505998,13.706328 C 22.237897,13.706328 23.660382,13.735713 24.924272,13.758443 L 24.924272,9.7716213 C 23.871413,9.7847154 22.933147,9.7976796 21.649551,9.7976796 C 17.513441,9.7976796 14.190462,9.7109729 14.190462,9.6152763 C 14.190462,9.519578 17.513441,9.4589296 21.649551,9.4589296 C 22.933147,9.4589296 23.871414,9.4718921 24.924272,9.4849871 L 24.924272,5.7066272 C 23.618679,5.7325856 22.032454,5.7587425 20.168129,5.7587425 C 16.032019,5.7587425 12.68305,5.6980944 12.68305,5.6023965 C 12.68305,5.5066987 16.032019,5.4199929 20.168129,5.4199929 C 22.032454,5.4199929 23.618679,5.4461499 24.924272,5.4721083 L 24.924272,4.7946093 C 23.695028,4.8151993 22.380128,4.8467246 20.739906,4.8467246 C 16.603797,4.8467246 13.254827,4.7600181 13.254827,4.664321 C 13.254827,4.5686231 16.603796,4.507975 20.739906,4.507975 C 22.380097,4.507975 23.69504,4.5134426 24.924272,4.5340327 L 24.924272,3.2832653 C 23.557011,3.3214979 21.554545,3.3353805 19.232493,3.3353805 C 15.096384,3.3353805 11.773405,3.2747317 11.773405,3.1790346 C 11.773405,3.0833368 15.096384,2.996631 19.232493,2.996631 C 21.554545,2.996631 23.557011,3.0105129 24.924272,3.0487464 L 24.924272,2.2670167 C 23.678338,2.2885916 22.292822,2.319132 20.609956,2.319132 C 16.473848,2.319132 13.150868,2.2324254 13.150868,2.1367284 C 13.150868,2.0410305 16.473848,1.9543248 20.609956,1.9543248 C 22.292822,1.9543248 23.678338,1.9848643 24.924272,2.0064401 L 24.924272,-9.1324288e-16 L 0,-9.1324288e-16 z M 14.866198,0.80778756 C 19.002308,0.80778756 22.351277,0.89449371 22.351277,0.99019154 C 22.351277,1.0858886 19.002308,1.1465375 14.866198,1.1465375 C 10.730089,1.1465375 7.4071094,1.0858886 7.4071094,0.99019154 C 7.4071094,0.89449371 10.730089,0.80778756 14.866198,0.80778756 z M 10.058075,3.8044183 C 14.194184,3.8044183 17.517163,3.891124 17.517163,3.9868219 C 17.517163,4.0825198 14.194184,4.1431679 10.058075,4.1431679 C 5.9219646,4.1431679 2.5729964,4.082519 2.5729964,3.9868219 C 2.5729964,3.891124 5.9219646,3.8044183 10.058075,3.8044183 z M 15.437976,6.3320109 C 19.574085,6.3320109 22.923053,6.4187167 22.923053,6.5144145 C 22.923052,6.6101124 19.574084,6.6968181 15.437976,6.6968181 C 11.301866,6.6968181 7.9788856,6.6101124 7.9788856,6.5144145 C 7.9788856,6.4187175 11.301866,6.3320109 15.437976,6.3320109 z M 16.373609,7.9475856 C 20.50972,7.9475856 23.832699,8.0342913 23.832699,8.1299892 C 23.832698,8.225687 20.509719,8.286335 16.373609,8.286335 C 12.2375,8.286335 8.9145213,8.225687 8.9145213,8.1299892 C 8.9145213,8.0342921 12.2375,7.9475856 16.373609,7.9475856 z M 16.139701,8.8596038 C 20.27581,8.8596038 23.59879,8.9463088 23.59879,9.0420071 C 23.59879,9.1377046 20.27581,9.2244105 16.139701,9.2244105 C 12.003591,9.2244105 8.6806122,9.1377046 8.6806122,9.0420071 C 8.6806122,8.9463088 12.003591,8.8596038 16.139701,8.8596038 z M 9.1224405,10.266717 C 13.258549,10.266717 16.607519,10.327365 16.607519,10.423062 C 16.607519,10.51876 13.258549,10.605466 9.1224405,10.605466 C 4.98633,10.605466 1.6633507,10.51876 1.6633507,10.423062 C 1.6633507,10.327365 4.98633,10.266717 9.1224405,10.266717 z M 15.437976,11.413254 C 19.574085,11.413254 22.923053,11.473902 22.923053,11.5696 C 22.923052,11.665297 19.574084,11.752004 15.437976,11.752004 C 11.301866,11.752004 7.9788856,11.665297 7.9788856,11.5696 C 7.9788856,11.473902 11.301866,11.413254 15.437976,11.413254 z M 15.230057,12.221041 C 19.366167,12.221041 22.689144,12.28169 22.689144,12.377387 C 22.689144,12.473085 19.366167,12.559791 15.230057,12.559791 C 11.093946,12.559791 7.7449774,12.473085 7.7449774,12.377387 C 7.7449774,12.28169 11.093946,12.221041 15.230057,12.221041 z M 15.801833,13.028829 C 19.937942,13.028829 23.260922,13.089476 23.260922,13.185174 C 23.260923,13.280872 19.937943,13.367578 15.801833,13.367578 C 11.665721,13.367578 8.3167542,13.280872 8.3167542,13.185174 C 8.3167542,13.089476 11.665723,13.028829 15.801833,13.028829 z M 12.241221,14.618345 C 16.377333,14.618345 19.700311,14.705051 19.700311,14.800749 C 19.700311,14.896446 16.377333,14.983153 12.241221,14.983153 C 8.1051121,14.983153 4.7561439,14.896447 4.7561439,14.800749 C 4.7561439,14.705051 8.1051121,14.618345 12.241221,14.618345 z M 13.722644,16.364209 C 17.858756,16.364209 21.181732,16.424857 21.181732,16.520554 C 21.181732,16.616252 17.858755,16.702958 13.722644,16.702958 C 9.5865354,16.702958 6.2635554,16.616253 6.2635554,16.520554 C 6.2635554,16.424857 9.5865338,16.364209 13.722644,16.364209 z M 13.722644,18.996032 C 17.858756,18.996032 21.181732,19.082737 21.181732,19.178435 C 21.181732,19.274132 17.858755,19.360838 13.722644,19.360838 C 9.5865354,19.360838 6.2635554,19.274133 6.2635554,19.178435 C 6.2635554,19.082737 9.5865338,18.996032 13.722644,18.996032 z M 11.201628,20.038338 C 15.337738,20.038338 18.660717,20.125043 18.660717,20.220742 C 18.660715,20.316438 15.337738,20.377087 11.201628,20.377087 C 7.0655186,20.377087 3.7425401,20.316439 3.7425401,20.220742 C 3.7425401,20.125043 7.0655186,20.038338 11.201628,20.038338 z M 10.499903,22.357469 C 14.636012,22.357469 17.984981,22.418117 17.984981,22.513815 C 17.984981,22.609512 14.636012,22.696219 10.499903,22.696219 C 6.3637922,22.696219 3.0408137,22.609512 3.0408137,22.513815 C 3.0408137,22.418117 6.3637922,22.357469 10.499903,22.357469 z "
     id="rect47548"
     inkscape:export-xdpi="90"
     inkscape:export-ydpi="90" />
  <path
     id="path46577"
     d="M 24.924272,24.885062 L 24.924272,24.497443 L 22.186773,24.497443 C 20.426463,24.497443 19.006062,24.431872 19.006062,24.342397 C 19.006062,24.252922 20.426463,24.18735 22.186773,24.18735 L 24.924272,24.18735 L 24.924272,22.404308 C 23.221026,22.401066 21.847845,22.310815 21.847845,22.223419 C 21.847845,22.136024 23.221026,22.071613 24.924272,22.068372 L 24.924272,20.207808 C 24.591351,20.213794 24.3339,20.207808 23.95963,20.207808 L 13.869994,20.207808 C 12.109683,20.207808 10.68928,20.142235 10.68928,20.05276 C 10.68928,19.963285 12.109683,19.897713 13.869994,19.897713 L 23.95963,19.897713 C 24.333982,19.897713 24.591287,19.917563 24.924272,19.923554 L 24.924272,16.745088 L 17.12892,16.745088 C 15.368611,16.745088 13.948206,16.679516 13.948206,16.590042 C 13.948206,16.500567 15.368611,16.434994 17.12892,16.434994 L 24.924272,16.434994 L 24.924272,15.453029 L 22.004274,15.453029 C 20.243964,15.453029 18.849632,15.387457 18.849632,15.297982 C 18.849632,15.208507 20.243964,15.142935 22.004274,15.142935 L 24.924272,15.142935 L 24.924272,11.731899 C 24.778384,11.732933 24.684872,11.731899 24.533201,11.731899 L 14.443563,11.731899 C 12.683254,11.731899 11.26285,11.666327 11.26285,11.576852 C 11.26285,11.487376 12.683254,11.421805 14.443563,11.421805 L 24.533201,11.421805 C 24.684872,11.421805 24.778384,11.42077 24.924272,11.421805 L 24.924272,9.3028271 L 17.858919,9.3028271 C 16.098609,9.3028271 14.678207,9.2372555 14.678207,9.1477805 C 14.678207,9.0583063 16.098609,8.9927338 17.858919,8.9927338 L 24.924272,8.9927338 L 24.924272,7.1063261 L 16.059992,7.1063261 C 14.299682,7.1063261 12.879279,7.0149129 12.879279,6.9254379 C 12.879279,6.8359629 14.299682,6.7703907 16.059992,6.7703907 L 24.924272,6.7703907 L 24.924272,6.2277258 C 24.643762,6.2318208 24.449232,6.2535671 24.14213,6.2535671 L 14.02642,6.2535671 C 12.266111,6.2535671 10.84571,6.187995 10.84571,6.09852 C 10.84571,6.009045 12.266111,5.9176317 14.02642,5.9176317 L 24.14213,5.9176317 C 24.449232,5.9176317 24.643762,5.939378 24.924272,5.9434728 L 24.924272,5.1682373 C 24.543872,5.1763883 24.243279,5.1940785 23.803201,5.1940785 L 13.713564,5.1940785 C 11.953254,5.1940785 10.532853,5.1285064 10.532853,5.0390315 C 10.532853,4.9495565 11.953254,4.8839843 13.713564,4.8839843 L 23.803201,4.8839843 C 24.243338,4.8839843 24.543831,4.9016721 24.924272,4.9098256 L 24.924272,3.5919251 L 19.006062,3.5919251 C 17.245753,3.5919251 15.825348,3.5005119 15.825348,3.4110369 C 15.825348,3.3215619 17.245753,3.2559897 19.006062,3.2559897 L 24.924272,3.2559897 L 24.924272,2.4549122 L 17.363562,2.4549122 C 15.603253,2.4549122 14.18285,2.3893401 14.18285,2.2998651 C 14.18285,2.2103902 15.603253,2.1189768 17.363562,2.1189768 L 24.924272,2.1189768 L 24.924272,-1.3239582e-15 L 0,-1.3239582e-15 L 0,0.46514131 L 5.5532122,0.46514131 C 7.3135214,0.46514131 8.733923,0.5565546 8.733923,0.6460296 C 8.733923,0.7355046 7.3135214,0.8010767 5.5532122,0.8010767 L 0,0.8010767 L 0,2.6874837 L 6.9349976,2.6874837 C 8.6953055,2.6874837 10.115709,2.7530558 10.115709,2.8425308 C 10.115709,2.9320058 8.6953055,3.0234191 6.9349976,3.0234191 L 0,3.0234191 L 0,4.2379547 L 8.3167816,4.2379547 C 10.07709,4.2379547 11.497494,4.3035268 11.497494,4.3930019 C 11.497494,4.4824769 10.07709,4.5480489 8.3167816,4.5480489 L 0,4.5480489 L 0,8.9927338 L 8.3949947,8.9927338 C 10.155305,8.9927338 11.575708,9.0583063 11.575708,9.1477805 C 11.575708,9.2372555 10.155305,9.3028271 8.3949947,9.3028271 L 0,9.3028271 L 0,11.215075 L 6.2049973,11.215075 C 7.9653073,11.215075 9.3857088,11.280647 9.3857088,11.370122 C 9.3857088,11.459597 7.9653073,11.52517 6.2049973,11.52517 L 0,11.52517 L 0,14.316018 L 8.2385678,14.316018 C 9.9988754,14.316018 11.41928,14.40743 11.41928,14.496905 C 11.41928,14.58638 9.9988754,14.651953 8.2385678,14.651953 L 0,14.651953 L 0,16.590042 L 8.2385678,16.590042 C 9.9988754,16.590042 11.41928,16.655614 11.41928,16.745088 C 11.41928,16.834563 9.9988754,16.900135 8.2385678,16.900135 L 0,16.900135 L 0,17.623688 C 0.01008863,17.623683 0.015960148,17.623688 0.026072067,17.623688 L 10.115709,17.623688 C 11.876017,17.623688 13.296422,17.715102 13.296422,17.804577 C 13.296422,17.894053 11.876017,17.959624 10.115709,17.959624 L 0.026072067,17.959624 C 0.015960148,17.959624 0.01008863,17.959629 0,17.959624 L 0,19.17416 L 6.3614263,19.17416 C 8.1217354,19.17416 9.542138,19.239732 9.542138,19.329207 C 9.542138,19.418682 8.1217354,19.484254 6.3614263,19.484254 L 0,19.484254 L 0,22.45599 C 0.51377984,22.437857 1.0451351,22.404308 1.720714,22.404308 L 11.836422,22.404308 C 13.596732,22.404308 15.017134,22.46988 15.017134,22.559355 C 15.017134,22.64883 13.596732,22.714402 11.836422,22.714402 L 1.720714,22.714402 C 1.0451351,22.714402 0.51377984,22.680853 0,22.662719 L 0,24.885062 L 24.924272,24.885062 z M 16.633563,23.773891 L 6.5439258,23.773891 C 4.7836167,23.773891 3.3632134,23.708318 3.3632134,23.618843 C 3.3632134,23.529368 4.7836167,23.437956 6.5439258,23.437956 L 16.633563,23.437956 C 18.393872,23.437956 19.814275,23.529368 19.814275,23.618843 C 19.814275,23.708318 18.393872,23.773891 16.633563,23.773891 z M 14.834634,21.344819 L 4.7449989,21.344819 C 2.984689,21.344819 1.5642858,21.279247 1.5642858,21.189772 C 1.5642858,21.100297 2.984689,21.034725 4.7449989,21.034725 L 14.834634,21.034725 C 16.594944,21.034725 18.015348,21.100297 18.015348,21.189772 C 18.015348,21.279247 16.594944,21.344819 14.834634,21.344819 z M 21.691417,18.605654 L 11.575708,18.605654 C 9.8153988,18.605654 8.3949947,18.540082 8.3949947,18.450607 C 8.3949947,18.361132 9.8153988,18.269718 11.575708,18.269718 L 21.691417,18.269718 C 23.451727,18.269718 24.872128,18.361132 24.872128,18.450607 C 24.872128,18.540082 23.451727,18.605654 21.691417,18.605654 z M 20.544274,13.437417 L 10.454637,13.437417 C 8.6943288,13.437417 7.2739254,13.371845 7.2739254,13.28237 C 7.2739254,13.192895 8.6943288,13.101481 10.454637,13.101481 L 20.544274,13.101481 C 22.304584,13.101481 23.724987,13.192895 23.724987,13.28237 C 23.724987,13.371845 22.304584,13.437417 20.544274,13.437417 z M 13.531064,10.853299 L 3.4414272,10.853299 C 1.6811189,10.853299 0.26071485,10.787726 0.26071485,10.698251 C 0.26071485,10.608776 1.6811189,10.517364 3.4414272,10.517364 L 13.531064,10.517364 C 15.291374,10.517364 16.711776,10.608776 16.711776,10.698251 C 16.711776,10.787726 15.291374,10.853299 13.531064,10.853299 z M 14.834634,1.5504708 L 4.7449989,1.5504708 C 2.984689,1.5504708 1.5642858,1.4848987 1.5642858,1.3954237 C 1.5642858,1.3059487 2.984689,1.2403765 4.7449989,1.2403765 L 14.834634,1.2403765 C 16.594944,1.2403765 18.015348,1.3059487 18.015348,1.3954237 C 18.015348,1.4848987 16.594944,1.5504708 14.834634,1.5504708 z "
     style="opacity:0.19892476;fill:#bbffff;fill-opacity:1;fill-rule:nonzero;stroke:#5a0000;stroke-width:0;stroke-linecap:round;stroke-linejoin:bevel;stroke-miterlimit:4;stroke-dasharray:none;stroke-dashoffset:0;stroke-opacity:0" />
  <path
     style="opacity:0.47311826;fill:#ffe4ff;fill-opacity:0.45161288;fill-rule:nonzero;stroke:#5a0000;stroke-width:0;stroke-linecap:round;stroke-linejoin:bevel;stroke-miterlimit:4;stroke-dasharray:none;stroke-dashoffset:0;stroke-opacity:0"
     d="M 0,-3.6704637e-15 L 0,0.38761715 L 2.737498,0.38761715 C 4.4978078,0.38761715 5.9182109,0.45318897 5.9182109,0.54266417 C 5.9182109,0.63213938 4.4978078,0.69771203 2.737498,0.69771203 L 0,0.69771203 L 0,2.4807533 C 1.7032458,2.4839952 3.0764265,2.5742452 3.0764265,2.6616421 C 3.0764265,2.7490374 1.7032458,2.8134465 0,2.8166892 L 0,4.6772535 C 0.33292061,4.671265 0.59037238,4.6772535 0.96464229,4.6772535 L 11.05428,4.6772535 C 12.814589,4.6772535 14.234992,4.7428253 14.234992,4.8323014 C 14.234992,4.9217757 12.814589,4.9873484 11.05428,4.9873484 L 0.96464229,4.9873484 C 0.59028922,4.9873484 0.33298383,4.9674967 0,4.9615065 L 0,8.1399734 L 7.7953524,8.1399734 C 9.5556613,8.1399734 10.976065,8.2055444 10.976065,8.2950205 C 10.976065,8.3844955 9.5556613,8.450068 7.7953524,8.450068 L 0,8.450068 L 0,9.432033 L 2.9199982,9.432033 C 4.6803081,9.432033 6.0746393,9.4976055 6.0746393,9.5870804 C 6.0746393,9.6765554 4.6803081,9.7421271 2.9199982,9.7421271 L 0,9.7421271 L 0,13.153164 C 0.14588879,13.152129 0.23940054,13.153164 0.39107101,13.153164 L 10.480709,13.153164 C 12.241018,13.153164 13.661422,13.218736 13.661422,13.30821 C 13.661422,13.397686 12.241018,13.463258 10.480709,13.463258 L 0.39107101,13.463258 C 0.23940054,13.463258 0.14588879,13.464292 0,13.463258 L 0,15.582236 L 7.0653536,15.582236 C 8.825663,15.582236 10.246065,15.647808 10.246065,15.737283 C 10.246065,15.826757 8.825663,15.892329 7.0653536,15.892329 L 0,15.892329 L 0,17.778736 L 8.8642813,17.778736 C 10.62459,17.778736 12.044992,17.870149 12.044992,17.959624 C 12.044992,18.049099 10.62459,18.114671 8.8642813,18.114671 L 0,18.114671 L 0,18.657336 C 0.28051031,18.653241 0.47503896,18.631495 0.78214203,18.631495 L 10.897852,18.631495 C 12.658159,18.631495 14.078564,18.697067 14.078564,18.786542 C 14.078564,18.876018 12.658159,18.967431 10.897852,18.967431 L 0.78214203,18.967431 C 0.47503896,18.967431 0.28051031,18.945684 0,18.941589 L 0,19.716825 C 0.38040013,19.708674 0.68099372,19.690984 1.1210705,19.690984 L 11.210707,19.690984 C 12.971017,19.690984 14.39142,19.756556 14.39142,19.846031 C 14.39142,19.935507 12.971017,20.001078 11.210707,20.001078 L 1.1210705,20.001078 C 0.68093383,20.001078 0.3804409,19.98339 0,19.975238 L 0,21.293137 L 5.9182109,21.293137 C 7.67852,21.293137 9.0989238,21.384552 9.0989238,21.474026 C 9.0989238,21.563501 7.67852,21.629072 5.9182109,21.629072 L 0,21.629072 L 0,22.430149 L 7.5607095,22.430149 C 9.3210188,22.430149 10.741423,22.495722 10.741423,22.585197 C 10.741423,22.674672 9.3210188,22.766084 7.5607095,22.766084 L 0,22.766084 L 0,24.885062 L 24.924272,24.885062 L 24.924272,24.419921 L 19.371061,24.419921 C 17.610751,24.419921 16.190349,24.328508 16.190349,24.239032 C 16.190349,24.149557 17.610751,24.083986 19.371061,24.083986 L 24.924272,24.083986 L 24.924272,22.197578 L 17.989275,22.197578 C 16.228966,22.197578 14.808564,22.132007 14.808564,22.042532 C 14.808564,21.953057 16.228966,21.861643 17.989275,21.861643 L 24.924272,21.861643 L 24.924272,20.647108 L 16.607491,20.647108 C 14.847182,20.647108 13.426778,20.581535 13.426778,20.49206 C 13.426778,20.402586 14.847182,20.337013 16.607491,20.337013 L 24.924272,20.337013 L 24.924272,15.892329 L 16.529276,15.892329 C 14.768967,15.892329 13.348564,15.826757 13.348564,15.737283 C 13.348564,15.647808 14.768967,15.582236 16.529276,15.582236 L 24.924272,15.582236 L 24.924272,13.669988 L 18.719274,13.669988 C 16.958964,13.669988 15.538563,13.604416 15.538563,13.514941 C 15.538563,13.425466 16.958964,13.359894 18.719274,13.359894 L 24.924272,13.359894 L 24.924272,10.569045 L 16.685705,10.569045 C 14.925395,10.569045 13.504994,10.477632 13.504994,10.388158 C 13.504994,10.298682 14.925395,10.23311 16.685705,10.23311 L 24.924272,10.23311 L 24.924272,8.2950205 L 16.685705,8.2950205 C 14.925395,8.2950205 13.504994,8.2294487 13.504994,8.1399734 C 13.504994,8.0504974 14.925395,7.9849264 16.685705,7.9849264 L 24.924272,7.9849264 L 24.924272,7.2613725 C 24.914183,7.2613767 24.908311,7.2613725 24.8982,7.2613725 L 14.808564,7.2613725 C 13.048253,7.2613725 11.627851,7.1699588 11.627851,7.0804836 C 11.627851,6.9910085 13.048253,6.9254366 14.808564,6.9254366 L 24.8982,6.9254366 C 24.908311,6.9254366 24.914183,6.9254316 24.924272,6.9254366 L 24.924272,5.7109014 L 18.562848,5.7109014 C 16.802537,5.7109014 15.382134,5.6453289 15.382134,5.5558544 C 15.382134,5.4663784 16.802537,5.4008074 18.562848,5.4008074 L 24.924272,5.4008074 L 24.924272,2.4290712 C 24.410492,2.4472049 23.879136,2.4807533 23.203558,2.4807533 L 13.08785,2.4807533 C 11.32754,2.4807533 9.9071371,2.4151814 9.9071371,2.3257062 C 9.9071371,2.2362302 11.32754,2.1706592 13.08785,2.1706592 L 23.203558,2.1706592 C 23.879136,2.1706592 24.410492,2.2042083 24.924272,2.2223412 L 24.924272,-3.6704637e-15 L 0,-3.6704637e-15 z M 8.2907108,1.1111711 L 18.380346,1.1111711 C 20.140656,1.1111711 21.56106,1.176742 21.56106,1.266218 C 21.56106,1.3556924 20.140656,1.4471061 18.380346,1.4471061 L 8.2907108,1.4471061 C 6.5304009,1.4471061 5.1099969,1.3556924 5.1099969,1.266218 C 5.1099969,1.176742 6.5304009,1.1111711 8.2907108,1.1111711 z M 10.089638,3.5402423 L 20.179273,3.5402423 C 21.939582,3.5402423 23.359987,3.6058132 23.359987,3.6952893 C 23.359987,3.7847636 21.939582,3.8503363 20.179273,3.8503363 L 10.089638,3.8503363 C 8.3293285,3.8503363 6.9089254,3.7847636 6.9089254,3.6952893 C 6.9089254,3.6058132 8.3293285,3.5402423 10.089638,3.5402423 z M 3.2328555,6.2794075 L 13.348564,6.2794075 C 15.108874,6.2794075 16.529276,6.3449785 16.529276,6.4344546 C 16.529276,6.5239297 15.108874,6.6153426 13.348564,6.6153426 L 3.2328555,6.6153426 C 1.4725464,6.6153426 0.052142469,6.5239297 0.052142469,6.4344546 C 0.052142469,6.3449785 1.4725464,6.2794075 3.2328555,6.2794075 z M 4.3799973,11.447646 L 14.469634,11.447646 C 16.229944,11.447646 17.650347,11.513218 17.650347,11.602692 C 17.650347,11.692168 16.229944,11.783582 14.469634,11.783582 L 4.3799973,11.783582 C 2.6196882,11.783582 1.199285,11.692168 1.199285,11.602692 C 1.199285,11.513218 2.6196882,11.447646 4.3799973,11.447646 z M 11.393208,14.031764 L 21.482845,14.031764 C 23.243154,14.031764 24.663557,14.097337 24.663557,14.186812 C 24.663557,14.276286 23.243154,14.367699 21.482845,14.367699 L 11.393208,14.367699 C 9.6328988,14.367699 8.2124954,14.276286 8.2124954,14.186812 C 8.2124954,14.097337 9.6328988,14.031764 11.393208,14.031764 z M 10.089638,23.334591 L 20.179273,23.334591 C 21.939582,23.334591 23.359987,23.400163 23.359987,23.489638 C 23.359987,23.579112 21.939582,23.644686 20.179273,23.644686 L 10.089638,23.644686 C 8.3293285,23.644686 6.9089254,23.579112 6.9089254,23.489638 C 6.9089254,23.400163 8.3293285,23.334591 10.089638,23.334591 z "
     id="rect44549" />
  <path
     style="fill:#ffffff;fill-opacity:1;fill-rule:nonzero;stroke:#000000;stroke-width:0.01055792;stroke-linecap:round;stroke-linejoin:bevel;stroke-miterlimit:4;stroke-dasharray:none;stroke-dashoffset:0;stroke-opacity:1"
     d="M 1.7187499,12.502293 L 14.042077,0.8900033 L 14.112899,0.96280746 L 14.112899,9.5901204 C 14.08871,9.5894971 14.066413,9.5901204 14.042077,9.5901204 C 12.478446,9.5901204 11.209127,10.891495 11.209127,12.484092 C 11.209128,14.076689 12.478446,15.359862 14.042077,15.359862 C 14.066413,15.359862 14.08871,15.360485 14.112899,15.359862 L 14.112899,24.041777 L 14.024371,24.114582 L 1.7187499,12.502293 z "
     id="rect2292" />
  <g
     id="g5275"
     transform="matrix(0.8242855,0,0,0.8238922,9.4107746e-2,0.1053372)">
    <rect
       transform="matrix(0,1,1,0,0,0)"
       style="opacity:0.14516129;fill:url(#radialGradient2304);fill-opacity:1;fill-rule:nonzero;stroke:#5a0000;stroke-width:0;stroke-linecap:round;stroke-linejoin:bevel;stroke-miterlimit:4;stroke-dasharray:none;stroke-dashoffset:0;stroke-opacity:0"
       id="rect34740"
       width="28.190651"
       height="28.221598"
       x="0.87895584"
       y="0.89374536"
       ry="12.855988"
       rx="12.841892" />
    <rect
       transform="matrix(0,1,1,0,0,0)"
       style="opacity:0.33870969;fill:url(#radialGradient2306);fill-opacity:1;fill-rule:nonzero;stroke:#5a0000;stroke-width:0;stroke-linecap:round;stroke-linejoin:bevel;stroke-miterlimit:4;stroke-dasharray:none;stroke-dashoffset:0;stroke-opacity:0"
       id="rect44545"
       width="28.190651"
       height="28.221598"
       x="0.87895584"
       y="0.89374536"
       ry="12.855988"
       rx="12.841892" />
    <rect
       rx="12.841892"
       ry="12.855988"
       y="-29.115345"
       x="-29.069607"
       height="28.221598"
       width="28.190651"
       id="rect7090"
       style="opacity:0.33870969;fill:url(#radialGradient2308);fill-opacity:1;fill-rule:nonzero;stroke:#5a0000;stroke-width:0;stroke-linecap:round;stroke-linejoin:bevel;stroke-miterlimit:4;stroke-dasharray:none;stroke-dashoffset:0;stroke-opacity:0"
       transform="matrix(0,-1,-1,0,0,0)" />
  </g>
  <g
     id="g2870"
     transform="translate(1.433529e-4,-1.1976063e-4)">
    <rect
       ry="0"
       y="2.4365482"
       x="27.639593"
       height="0"
       width="0.30456853"
       id="rect2872"
       style="opacity:1;fill:#ffff00;fill-opacity:1;fill-rule:nonzero;stroke:#5a0000;stroke-width:0;stroke-linecap:round;stroke-linejoin:bevel;stroke-miterlimit:4;stroke-dasharray:none;stroke-dashoffset:0;stroke-opacity:0" />
    <g
       id="g2612">
      <rect
         style="opacity:0.5;fill:#000000;fill-opacity:1;fill-rule:nonzero;stroke:#000000;stroke-width:0.09051152;stroke-linecap:round;stroke-linejoin:bevel;stroke-miterlimit:4;stroke-dasharray:none;stroke-dashoffset:0;stroke-opacity:0"
         id="rect3282"
         width="24.875288"
         height="24.875111"
         x="0.062356647"
         y="0.062509134" />
      <g
         id="g2291"
         transform="translate(-30,-2)">
        <rect
           inkscape:export-ydpi="90"
           inkscape:export-xdpi="90"
           inkscape:export-filename="/home/ian/Vector stuff/FreeDroid/bbb.png"
           transform="matrix(0,-1,-1,0,0,0)"
           style="opacity:0.5;fill:url(#linearGradient2296);fill-opacity:1;fill-rule:nonzero;stroke:#5a0000;stroke-width:0;stroke-linecap:round;stroke-linejoin:bevel;stroke-miterlimit:4;stroke-dasharray:none;stroke-dashoffset:0;stroke-opacity:0"
           id="rect54501"
           width="25"
           height="25"
           x="-27"
           y="-55"
           rx="0"
           ry="0" />
        <rect
           ry="0"
           rx="0"
           y="-27"
           x="30"
           height="25"
           width="25"
           id="rect6255"
           style="opacity:0.47849462;fill:url(#linearGradient2298);fill-opacity:1;fill-rule:nonzero;stroke:#5a0000;stroke-width:0;stroke-linecap:round;stroke-linejoin:bevel;stroke-miterlimit:4;stroke-dasharray:none;stroke-dashoffset:0;stroke-opacity:0"
           transform="scale(1,-1)"
           inkscape:export-filename="/home/ian/Vector stuff/FreeDroid/bbb.png"
           inkscape:export-xdpi="90"
           inkscape:export-ydpi="90" />
      </g>
    </g>
  </g>
</svg>
