<?xml version="1.0" encoding="UTF-8" standalone="no"?>
<!-- Created with Inkscape (http://www.inkscape.org/) -->

<svg
   xmlns:dc="http://purl.org/dc/elements/1.1/"
   xmlns:cc="http://creativecommons.org/ns#"
   xmlns:rdf="http://www.w3.org/1999/02/22-rdf-syntax-ns#"
   xmlns:svg="http://www.w3.org/2000/svg"
   xmlns="http://www.w3.org/2000/svg"
   xmlns:xlink="http://www.w3.org/1999/xlink"
   xmlns:sodipodi="http://sodipodi.sourceforge.net/DTD/sodipodi-0.dtd"
   xmlns:inkscape="http://www.inkscape.org/namespaces/inkscape"
   width="1052.36"
   height="736.09003"
   id="svg2"
   version="1.1"
   inkscape:version="0.47pre4 r22446"
   enable-background="new"
   sodipodi:docname="futureballisticslogo.svg"
   inkscape:export-filename="/home/amit/freedroid/contribs/futureballisticslogo.png"
   inkscape:export-xdpi="20.9002"
   inkscape:export-ydpi="20.9002">
  <defs
     id="defs4">
    <linearGradient
       id="linearGradient3962">
      <stop
         style="stop-color:#ffffff;stop-opacity:1;"
         offset="0"
         id="stop3964" />
      <stop
         style="stop-color:#ffffff;stop-opacity:0;"
         offset="1"
         id="stop3966" />
    </linearGradient>
    <linearGradient
       id="linearGradient3896">
      <stop
         style="stop-color:#e1e1e1;stop-opacity:0.3902439"
         offset="0"
         id="stop3898" />
      <stop
         id="stop3900"
         offset="0.73075253"
         style="stop-color:#939391;stop-opacity:0.3902439" />
      <stop
         style="stop-color:#e1e1e1;stop-opacity:0.3902439"
         offset="1"
         id="stop3902" />
    </linearGradient>
    <linearGradient
       inkscape:collect="always"
       id="linearGradient3804">
      <stop
         style="stop-color:#000000;stop-opacity:1;"
         offset="0"
         id="stop3806" />
      <stop
         style="stop-color:#000000;stop-opacity:0;"
         offset="1"
         id="stop3808" />
    </linearGradient>
    <linearGradient
       id="linearGradient3782">
      <stop
         id="stop3784"
         offset="0"
         style="stop-color:#e1e1e1;stop-opacity:1;" />
      <stop
         style="stop-color:#939391;stop-opacity:0.98692811;"
         offset="0.73075253"
         id="stop3786" />
      <stop
         id="stop3788"
         offset="1"
         style="stop-color:#e1e1e1;stop-opacity:0;" />
    </linearGradient>
    <linearGradient
       id="linearGradient3754">
      <stop
         style="stop-color:#008200;stop-opacity:1;"
         offset="0"
         id="stop3756" />
      <stop
         id="stop3812"
         offset="0.52776474"
         style="stop-color:#93ff91;stop-opacity:1;" />
      <stop
         style="stop-color:#008700;stop-opacity:0.81176472;"
         offset="1"
         id="stop3758" />
    </linearGradient>
    <linearGradient
       id="linearGradient3742">
      <stop
         style="stop-color:#e1e1e1;stop-opacity:1;"
         offset="0"
         id="stop3744" />
      <stop
         id="stop3750"
         offset="0.62787658"
         style="stop-color:#939391;stop-opacity:0.79084969;" />
      <stop
         style="stop-color:#e1e1e1;stop-opacity:0;"
         offset="1"
         id="stop3746" />
    </linearGradient>
    <linearGradient
       id="linearGradient3630">
      <stop
         style="stop-color:#00b700;stop-opacity:1;"
         offset="0"
         id="stop3632" />
      <stop
         id="stop3640"
         offset="0.75231218"
         style="stop-color:#006600;stop-opacity:0.74901962;" />
      <stop
         id="stop3638"
         offset="1"
         style="stop-color:#004300;stop-opacity:0.57516342;" />
    </linearGradient>
    <inkscape:perspective
       sodipodi:type="inkscape:persp3d"
       inkscape:vp_x="0 : 526.18109 : 1"
       inkscape:vp_y="0 : 1000 : 0"
       inkscape:vp_z="744.09448 : 526.18109 : 1"
       inkscape:persp3d-origin="372.04724 : 350.78739 : 1"
       id="perspective10" />
    <inkscape:perspective
       id="perspective3670"
       inkscape:persp3d-origin="0.5 : 0.33333333 : 1"
       inkscape:vp_z="1 : 0.5 : 1"
       inkscape:vp_y="0 : 1000 : 0"
       inkscape:vp_x="0 : 0.5 : 1"
       sodipodi:type="inkscape:persp3d" />
    <inkscape:perspective
       id="perspective3692"
       inkscape:persp3d-origin="0.5 : 0.33333333 : 1"
       inkscape:vp_z="1 : 0.5 : 1"
       inkscape:vp_y="0 : 1000 : 0"
       inkscape:vp_x="0 : 0.5 : 1"
       sodipodi:type="inkscape:persp3d" />
    <inkscape:perspective
       id="perspective3714"
       inkscape:persp3d-origin="0.5 : 0.33333333 : 1"
       inkscape:vp_z="1 : 0.5 : 1"
       inkscape:vp_y="0 : 1000 : 0"
       inkscape:vp_x="0 : 0.5 : 1"
       sodipodi:type="inkscape:persp3d" />
    <inkscape:perspective
       id="perspective3714-3"
       inkscape:persp3d-origin="0.5 : 0.33333333 : 1"
       inkscape:vp_z="1 : 0.5 : 1"
       inkscape:vp_y="0 : 1000 : 0"
       inkscape:vp_x="0 : 0.5 : 1"
       sodipodi:type="inkscape:persp3d" />
    <linearGradient
       inkscape:collect="always"
       xlink:href="#linearGradient3754"
       id="linearGradient3760"
       x1="353.24536"
       y1="389.45935"
       x2="279.20093"
       y2="286.38123"
       gradientUnits="userSpaceOnUse" />
    <linearGradient
       inkscape:collect="always"
       xlink:href="#linearGradient3804"
       id="linearGradient3810"
       x1="227.97656"
       y1="337.92029"
       x2="403.75781"
       y2="337.92029"
       gradientUnits="userSpaceOnUse" />
    <linearGradient
       inkscape:collect="always"
       xlink:href="#linearGradient3754"
       id="linearGradient3816"
       gradientUnits="userSpaceOnUse"
       x1="353.24536"
       y1="389.45935"
       x2="279.20093"
       y2="286.38123" />
    <linearGradient
       inkscape:collect="always"
       xlink:href="#linearGradient3754"
       id="linearGradient3818"
       gradientUnits="userSpaceOnUse"
       x1="353.24536"
       y1="389.45935"
       x2="279.20093"
       y2="286.38123" />
    <linearGradient
       inkscape:collect="always"
       xlink:href="#linearGradient3804"
       id="linearGradient3820"
       gradientUnits="userSpaceOnUse"
       x1="227.97656"
       y1="337.92029"
       x2="403.75781"
       y2="337.92029" />
    <linearGradient
       inkscape:collect="always"
       xlink:href="#linearGradient3754"
       id="linearGradient3828"
       gradientUnits="userSpaceOnUse"
       x1="353.24536"
       y1="389.45935"
       x2="279.20093"
       y2="286.38123" />
    <linearGradient
       inkscape:collect="always"
       xlink:href="#linearGradient3754"
       id="linearGradient3830"
       gradientUnits="userSpaceOnUse"
       x1="353.24536"
       y1="389.45935"
       x2="279.20093"
       y2="286.38123" />
    <linearGradient
       inkscape:collect="always"
       xlink:href="#linearGradient3782"
       id="linearGradient3705"
       gradientUnits="userSpaceOnUse"
       x1="144.34518"
       y1="676.41852"
       x2="914.1524"
       y2="676.41852"
       gradientTransform="translate(68.690371,-312.23204)" />
    <inkscape:perspective
       id="perspective3863"
       inkscape:persp3d-origin="0.5 : 0.33333333 : 1"
       inkscape:vp_z="1 : 0.5 : 1"
       inkscape:vp_y="0 : 1000 : 0"
       inkscape:vp_x="0 : 0.5 : 1"
       sodipodi:type="inkscape:persp3d" />
    <linearGradient
       inkscape:collect="always"
       xlink:href="#linearGradient3782-2"
       id="linearGradient3705-6"
       gradientUnits="userSpaceOnUse"
       x1="144.34518"
       y1="676.41852"
       x2="914.1524"
       y2="676.41852"
       gradientTransform="translate(0,-316.27265)" />
    <linearGradient
       id="linearGradient3782-2">
      <stop
         id="stop3784-9"
         offset="0"
         style="stop-color:#e1e1e1;stop-opacity:1;" />
      <stop
         style="stop-color:#939391;stop-opacity:0.79084969;"
         offset="0.73075253"
         id="stop3786-7" />
      <stop
         id="stop3788-0"
         offset="1"
         style="stop-color:#e1e1e1;stop-opacity:0;" />
    </linearGradient>
    <linearGradient
       inkscape:collect="always"
       xlink:href="#linearGradient3962"
       id="linearGradient3968"
       x1="739.60034"
       y1="930.5047"
       x2="854.4809"
       y2="930.5047"
       gradientUnits="userSpaceOnUse" />
    <clipPath
       clipPathUnits="userSpaceOnUse"
       id="clipPath4026">
      <g
         id="g4028"
         transform="translate(0,316.27265)">
        <rect
           style="fill:#ffffff;fill-opacity:1;fill-rule:nonzero;stroke:none"
           id="rect4030"
           width="225.96266"
           height="6.0609112"
           x="702.05603"
           y="562.34381"
           rx="0"
           ry="2.2123196" />
        <rect
           style="fill:#ffffff;fill-opacity:1;fill-rule:nonzero;stroke:none"
           id="rect4032"
           width="225.96266"
           height="6.0609112"
           x="736.87732"
           y="584.56714"
           rx="0"
           ry="2.2123196" />
        <rect
           style="fill:#ffffff;fill-opacity:1;fill-rule:nonzero;stroke:none"
           id="rect4034"
           width="225.96266"
           height="6.0609112"
           x="753.88531"
           y="615.20844"
           rx="0"
           ry="2.2123196" />
        <rect
           style="fill:#ffffff;fill-opacity:1;fill-rule:nonzero;stroke:none"
           id="rect4036"
           width="225.96266"
           height="6.0609112"
           x="736.40118"
           y="640.46222"
           rx="0"
           ry="2.2123196" />
        <rect
           style="fill:#ffffff;fill-opacity:1;fill-rule:nonzero;stroke:none"
           id="rect4038"
           width="225.96266"
           height="6.0609112"
           x="702.05603"
           y="663.35901"
           rx="0"
           ry="2.2123196" />
      </g>
    </clipPath>
    <clipPath
       clipPathUnits="userSpaceOnUse"
       id="clipPath4047">
      <path
         style="fill:#ffffff;fill-opacity:1;stroke:none"
         d="m 552.43132,745.8654 154.97359,-2.86071 c 0,0 -23.2646,79.31551 -43.19945,97.95685 -63.90793,59.7611 -276.51827,79.05236 -275.07409,37.22599 2.20062,-62.95922 37.04316,-9.80617 118.68763,-72.2028 34.7295,-26.54195 35.76097,-47.72393 44.61232,-60.11933 z"
         id="path4049"
         sodipodi:nodetypes="ccsssc" />
    </clipPath>
    <filter
       color-interpolation-filters="sRGB"
       inkscape:menu-tooltip="Melting parts of object together, with a glossy bevel and a glow"
       inkscape:menu="Bevels"
       inkscape:label="Molten metal"
       id="filter3885">
      <feGaussianBlur
         result="result1"
         stdDeviation="5"
         id="feGaussianBlur3887" />
      <feColorMatrix
         values="1 0 0 0 0 0 1 0 0 0 0 0 1 0 0 0 0 0 5 -4 "
         result="result10"
         id="feColorMatrix3889" />
      <feComposite
         result="result8"
         in="result10"
         operator="atop"
         in2="result10"
         id="feComposite3891" />
      <feComposite
         in="result1"
         result="fbSourceGraphic"
         operator="in"
         in2="result8"
         id="feComposite3893" />
      <feGaussianBlur
         stdDeviation="5"
         in="fbSourceGraphic"
         result="result0"
         id="feGaussianBlur3895" />
      <feSpecularLighting
         in="result0"
         result="result1"
         lighting-color="rgb(255,255,255)"
         surfaceScale="2"
         specularConstant="2.5"
         specularExponent="55"
         id="feSpecularLighting3897">
        <feDistantLight
           elevation="60"
           azimuth="225"
           id="feDistantLight3899" />
      </feSpecularLighting>
      <feComposite
         in="result1"
         result="result2"
         operator="in"
         in2="fbSourceGraphic"
         id="feComposite3901" />
      <feComposite
         in="fbSourceGraphic"
         result="result4"
         operator="arithmetic"
         k2="1"
         k3="1"
         in2="result2"
         id="feComposite3903" />
      <feComposite
         result="result9"
         in="result9"
         operator="in"
         in2="result4"
         id="feComposite3905" />
      <feBlend
         in="result9"
         mode="multiply"
         in2="result9"
         id="feBlend3907" />
    </filter>
    <filter
       color-interpolation-filters="sRGB"
       inkscape:menu-tooltip="Melting parts of object together, with a glossy bevel and a glow"
       inkscape:menu="Bevels"
       inkscape:label="Molten metal"
       id="filter3861">
      <feGaussianBlur
         result="result1"
         stdDeviation="5"
         id="feGaussianBlur3863" />
      <feColorMatrix
         values="1 0 0 0 0 0 1 0 0 0 0 0 1 0 0 0 0 0 5 -4 "
         result="result10"
         id="feColorMatrix3865" />
      <feComposite
         result="result8"
         in="result10"
         operator="atop"
         in2="result10"
         id="feComposite3867" />
      <feComposite
         in="result1"
         result="fbSourceGraphic"
         operator="in"
         in2="result8"
         id="feComposite3869" />
      <feGaussianBlur
         stdDeviation="5"
         in="fbSourceGraphic"
         result="result0"
         id="feGaussianBlur3871" />
      <feSpecularLighting
         in="result0"
         result="result1"
         lighting-color="rgb(255,255,255)"
         surfaceScale="2"
         specularConstant="2.5"
         specularExponent="55"
         id="feSpecularLighting3873">
        <feDistantLight
           elevation="60"
           azimuth="225"
           id="feDistantLight3875" />
      </feSpecularLighting>
      <feComposite
         in="result1"
         result="result2"
         operator="in"
         in2="fbSourceGraphic"
         id="feComposite3877" />
      <feComposite
         in="fbSourceGraphic"
         result="result4"
         operator="arithmetic"
         k2="1"
         k3="1"
         in2="result2"
         id="feComposite3879" />
      <feComposite
         result="result9"
         in="result9"
         operator="in"
         in2="result4"
         id="feComposite3881" />
      <feBlend
         in="result9"
         mode="multiply"
         in2="result9"
         id="feBlend3883" />
    </filter>
    <inkscape:perspective
       id="perspective10-4"
       inkscape:persp3d-origin="372.04724 : 350.78739 : 1"
       inkscape:vp_z="744.09448 : 526.18109 : 1"
       inkscape:vp_y="0 : 1000 : 0"
       inkscape:vp_x="0 : 526.18109 : 1"
       sodipodi:type="inkscape:persp3d" />
    <linearGradient
       id="linearGradient3627">
      <stop
         id="stop3629"
         offset="0"
         style="stop-color:#d49155;stop-opacity:1;" />
      <stop
         style="stop-color:#ffffff;stop-opacity:1;"
         offset="0.46671605"
         id="stop3635" />
      <stop
         id="stop3631"
         offset="1"
         style="stop-color:#d49155;stop-opacity:1;" />
    </linearGradient>
    <linearGradient
       id="linearGradient3653">
      <stop
         style="stop-color:#d49155;stop-opacity:1;"
         offset="0"
         id="stop3655" />
      <stop
         id="stop3657"
         offset="0.79663324"
         style="stop-color:#ffffff;stop-opacity:1;" />
      <stop
         style="stop-color:#d49155;stop-opacity:1;"
         offset="1"
         id="stop3659" />
    </linearGradient>
    <linearGradient
       inkscape:collect="always"
       xlink:href="#linearGradient3653"
       id="linearGradient3829"
       gradientUnits="userSpaceOnUse"
       gradientTransform="matrix(0.88709647,0,0,1.0009017,-52.693257,22.450243)"
       x1="51.535717"
       y1="272.46933"
       x2="217.89719"
       y2="405.5239" />
    <linearGradient
       inkscape:collect="always"
       xlink:href="#linearGradient3627"
       id="linearGradient3831"
       gradientUnits="userSpaceOnUse"
       gradientTransform="matrix(1.1197095,0,0,0.99896129,-102.37864,23.323836)"
       x1="291.42856"
       y1="334.01807"
       x2="564.28571"
       y2="604.58417" />
  </defs>
  <sodipodi:namedview
     id="base"
     pagecolor="#ffffff"
     bordercolor="#666666"
     borderopacity="1.0"
     inkscape:pageopacity="0"
     inkscape:pageshadow="2"
     inkscape:zoom="0.35000001"
     inkscape:cx="509.46154"
     inkscape:cy="358.81212"
     inkscape:document-units="m"
     inkscape:current-layer="layer2"
     showgrid="false"
     width="1052.36px"
     inkscape:snap-global="true"
     showguides="true"
     inkscape:guide-bbox="true"
     inkscape:window-width="1170"
     inkscape:window-height="879"
     inkscape:window-x="68"
     inkscape:window-y="26"
     inkscape:window-maximized="0"
     inkscape:snap-to-guides="true"
     inkscape:snap-grids="true" />
  <metadata
     id="metadata7">
    <rdf:RDF>
      <cc:Work
         rdf:about="">
        <dc:format>image/svg+xml</dc:format>
        <dc:type
           rdf:resource="http://purl.org/dc/dcmitype/StillImage" />
        <dc:title></dc:title>
      </cc:Work>
    </rdf:RDF>
  </metadata>
  <g
     inkscape:groupmode="layer"
     id="layer2"
     inkscape:label="Layer">
    <path
       style="fill:url(#linearGradient3705);fill-opacity:1;fill-rule:nonzero;stroke:none"
       d="m 608.42365,522.21254 c -84.70581,0 -49.8996,0 -83.54749,-1.82597 C 587.9136,489.877 648.42633,402.57093 612.62162,294.97026 587.24244,227.0957 492.58607,150.97036 385.63317,192.87306 c -124.2584,48.68276 -147.29567,193.61161 -91.91158,266.7818 76.64818,89.57335 82.14047,88.09864 484.78912,88.09864 80.53698,0 204.33205,61.66017 204.33205,74.07734 0,12.41717 -124.15239,66.79432 -202.686,66.79432 -294.10992,0 -225.88339,8.8818 -354.14304,-2.42704 C 166.77743,663.34098 121.60699,437.36636 121.60699,361.6998 c 0,-151.4608 102.07339,-251.51102 181.15161,-291.96382 84.85282,-43.40683 289.87587,-77.2613799 421.44898,120.30458 46.91312,70.44323 55.59964,158.3465 42.30746,229.48304 -7.34385,39.30256 -22.57363,73.8341 -40.56965,102.68894 -16.64851,-0.39964 -107.63087,0 -117.52174,0 z"
       id="path2816"
       sodipodi:nodetypes="cccscszsssssscc" />
    <g
       style="opacity:0.85500004;display:inline"
       id="layer1-4"
       inkscape:label="Layer 1"
       transform="matrix(0.40862586,0,0,0.40862586,618.23391,425.68874)">
      <rect
         ry="34.952724"
         rx="35.983215"
         y="297.91776"
         x="28.412708"
         height="352.35516"
         width="109.75034"
         id="rect2837"
         style="fill:url(#linearGradient3829);fill-opacity:1;fill-rule:nonzero;stroke:#000000;stroke-width:5.18255377;stroke-miterlimit:4;stroke-opacity:1;stroke-dasharray:none;filter:url(#filter3885)" />
      <path
         sodipodi:nodetypes="ccczcc"
         id="path3615"
         d="m 135.14761,622.51464 0,-300.71278 294.08013,-2.0182 c 160.61299,0 307.66113,95.73262 307.66113,157.42011 0,63.70152 -147.04814,147.32908 -307.66113,147.32908 l -294.08013,-2.01821 z"
         style="fill:url(#linearGradient3831);fill-opacity:1;stroke:#000000;stroke-width:5.8168745;stroke-linecap:butt;stroke-linejoin:miter;stroke-miterlimit:4;stroke-opacity:1;stroke-dasharray:none;filter:url(#filter3861)" />
      <path
         sodipodi:nodetypes="ccccc"
         id="path3623"
         d="m 500.42068,332.43093 0.35714,277.31488 c -21.48806,8.74615 -38.2838,7.97546 -47.06904,8.63225 L 453.46584,325.0017 c 21.32752,2.39882 28.61251,2.49922 46.95484,7.42923 z"
         style="fill:#bd821f;fill-opacity:0.5414847;stroke:none" />
    </g>
    <path
       transform="translate(68.690371,-312.23204)"
       style="fill:url(#linearGradient3968);fill-opacity:1;fill-rule:nonzero;stroke:none;display:inline;opacity:0.91"
       d="m 708.73778,860.06885 c 80.537,0 204.332,61.66017 204.332,74.07734 0,12.41717 -124.1524,66.79431 -202.686,66.79431 -74.37168,0 -76.11741,-140.87165 -1.646,-140.87165 z"
       id="path2816-3"
       sodipodi:nodetypes="czcc"
       clip-path="url(#clipPath4026)"
       inkscape:export-xdpi="85.302505"
       inkscape:export-ydpi="85.302505" />
  </g>
  <g
     inkscape:label="Layer 1"
     inkscape:groupmode="layer"
     id="layer1"
     transform="translate(0,-316.27265)"
     style="display:inline">
    <path
       sodipodi:type="spiral"
       style="fill:none;stroke:#a76500;stroke-width:8.51906395;stroke-linecap:butt;stroke-linejoin:miter;stroke-miterlimit:4;stroke-opacity:1;stroke-dasharray:none"
       id="path2866"
       sodipodi:cx="387.89856"
       sodipodi:cy="349.2016"
       sodipodi:expansion="0.95611316"
       sodipodi:revolution="4.2424021"
       sodipodi:radius="240.1076"
       sodipodi:argument="-20.50836"
       sodipodi:t0="0.50716221"
       d="m 483.33691,267.77162 c 51.0863,51.95499 46.51134,137.54747 -4.98418,187.44495 -57.73967,55.94787 -152.18945,50.66338 -206.99747,-6.57781 -60.79447,-63.4934 -54.80331,-166.77022 8.1603,-226.46525 69.22002,-65.62665 181.29511,-58.93155 245.85626,9.73306 70.44505,74.92248 63.04858,195.76865 -11.2972,265.17712 -80.60318,75.25031 -210.19474,67.1549 -284.43342,-12.85363 -80.04309,-86.26405 -71.25103,-224.57672 14.40307,-303.62995 91.90671,-84.823984 238.91754,-75.33741 322.77084,15.94618 30.67126,33.38907 51.2431,75.50548 58.98219,120.16148"
       transform="matrix(0.82168655,0,0,0.82168655,123.79906,398.34108)" />
    <flowRoot
       xml:space="preserve"
       id="flowRoot3601"
       style="font-size:144px;font-style:italic;font-variant:normal;font-weight:bold;font-stretch:normal;text-align:start;line-height:100%;writing-mode:lr-tb;text-anchor:start;fill:url(#linearGradient3830);fill-opacity:1;stroke:none;font-family:Arial;-inkscape-font-specification:'10.15 Saturday Night BRK Bold'"
       transform="matrix(2.3466279,0,0,2.003157,-294.23835,-0.10871814)"
       inkscape:export-xdpi="20.9002"
       inkscape:export-ydpi="20.9002"><flowRegion
         id="flowRegion3603"
         style="fill:url(#linearGradient3818);fill-opacity:1;stroke:url(#linearGradient3820)"><rect
           id="rect3605"
           width="202.85715"
           height="128.57143"
           x="221.42857"
           y="276.09003"
           style="font-size:144px;font-style:italic;font-variant:normal;font-weight:bold;font-stretch:normal;text-align:start;line-height:100%;writing-mode:lr-tb;text-anchor:start;fill:url(#linearGradient3816);fill-opacity:1;stroke:none;font-family:Arial;-inkscape-font-specification:'10.15 Saturday Night BRK Bold'"
           ry="0" /></flowRegion><flowPara
         id="flowPara3607"
         style="font-weight:bold;text-align:start;writing-mode:lr-tb;text-anchor:start;fill:url(#linearGradient3828);fill-opacity:1;stroke:none;-inkscape-font-specification:'10.15 Saturday Night BRK Bold'">FB</flowPara></flowRoot>  </g>
</svg>
