<?xml version="1.0" encoding="UTF-8" standalone="no"?>
<!-- Created with Inkscape (http://www.inkscape.org/) -->
<svg
   xmlns:dc="http://purl.org/dc/elements/1.1/"
   xmlns:cc="http://creativecommons.org/ns#"
   xmlns:rdf="http://www.w3.org/1999/02/22-rdf-syntax-ns#"
   xmlns:svg="http://www.w3.org/2000/svg"
   xmlns="http://www.w3.org/2000/svg"
   xmlns:xlink="http://www.w3.org/1999/xlink"
   xmlns:sodipodi="http://sodipodi.sourceforge.net/DTD/sodipodi-0.dtd"
   xmlns:inkscape="http://www.inkscape.org/namespaces/inkscape"
   sodipodi:docname="iso_mini_square_0003.svg"
   inkscape:version="0.46"
   version="1.1"
   id="svg2893"
   height="67"
   width="133"
   inkscape:export-filename="E:\not-important\freedroid-2\tiles\set3\rendered\iso_mini_square_0003.png"
   inkscape:export-xdpi="90"
   inkscape:export-ydpi="90"
   sodipodi:version="0.32"
   inkscape:output_extension="org.inkscape.output.svg.inkscape">
  <defs
     id="defs2895">
    <inkscape:perspective
       sodipodi:type="inkscape:persp3d"
       inkscape:vp_x="0 : 526.18109 : 1"
       inkscape:vp_y="0 : 1000 : 0"
       inkscape:vp_z="744.09448 : 526.18109 : 1"
       inkscape:persp3d-origin="372.04724 : 350.78739 : 1"
       id="perspective2901" />
    <inkscape:perspective
       id="perspective3719"
       inkscape:persp3d-origin="0.5 : 0.33333333 : 1"
       inkscape:vp_z="1 : 0.5 : 1"
       inkscape:vp_y="0 : 1000 : 0"
       inkscape:vp_x="0 : 0.5 : 1"
       sodipodi:type="inkscape:persp3d" />
    <inkscape:perspective
       id="perspective3753"
       inkscape:persp3d-origin="0.5 : 0.33333333 : 1"
       inkscape:vp_z="1 : 0.5 : 1"
       inkscape:vp_y="0 : 1000 : 0"
       inkscape:vp_x="0 : 0.5 : 1"
       sodipodi:type="inkscape:persp3d" />
    <inkscape:perspective
       id="perspective3776"
       inkscape:persp3d-origin="0.5 : 0.33333333 : 1"
       inkscape:vp_z="1 : 0.5 : 1"
       inkscape:vp_y="0 : 1000 : 0"
       inkscape:vp_x="0 : 0.5 : 1"
       sodipodi:type="inkscape:persp3d" />
    <inkscape:perspective
       id="perspective3809"
       inkscape:persp3d-origin="0.5 : 0.33333333 : 1"
       inkscape:vp_z="1 : 0.5 : 1"
       inkscape:vp_y="0 : 1000 : 0"
       inkscape:vp_x="0 : 0.5 : 1"
       sodipodi:type="inkscape:persp3d" />
    <inkscape:perspective
       id="perspective2857"
       inkscape:persp3d-origin="0.5 : 0.33333333 : 1"
       inkscape:vp_z="1 : 0.5 : 1"
       inkscape:vp_y="0 : 1000 : 0"
       inkscape:vp_x="0 : 0.5 : 1"
       sodipodi:type="inkscape:persp3d" />
    <inkscape:perspective
       id="perspective2861"
       inkscape:persp3d-origin="0.5 : 0.33333333 : 1"
       inkscape:vp_z="1 : 0.5 : 1"
       inkscape:vp_y="0 : 1000 : 0"
       inkscape:vp_x="0 : 0.5 : 1"
       sodipodi:type="inkscape:persp3d" />
    <inkscape:perspective
       id="perspective2910"
       inkscape:persp3d-origin="0.5 : 0.33333333 : 1"
       inkscape:vp_z="1 : 0.5 : 1"
       inkscape:vp_y="0 : 1000 : 0"
       inkscape:vp_x="0 : 0.5 : 1"
       sodipodi:type="inkscape:persp3d" />
    <filter
       id="filter4957">
      <feGaussianBlur
         stdDeviation="8.6228164e-17"
         id="feGaussianBlur4959" />
    </filter>
    <filter
       id="filter4975">
      <feGaussianBlur
         stdDeviation="1.4858925e-16"
         id="feGaussianBlur4977" />
    </filter>
    <filter
       id="filter4983">
      <feGaussianBlur
         stdDeviation="3.0414218e-17"
         id="feGaussianBlur4985" />
    </filter>
    <filter
       id="filter4989">
      <feGaussianBlur
         stdDeviation="4.8287687e-17"
         id="feGaussianBlur4991" />
    </filter>
    <filter
       id="filter4995">
      <feGaussianBlur
         stdDeviation="5.4701808e-17"
         id="feGaussianBlur4997" />
    </filter>
    <filter
       id="filter5001">
      <feGaussianBlur
         stdDeviation="3.6479705e-16"
         id="feGaussianBlur5003" />
    </filter>
    <filter
       id="filter5009">
      <feGaussianBlur
         stdDeviation="9.3845685e-17"
         id="feGaussianBlur5011" />
    </filter>
    <filter
       id="filter5015">
      <feGaussianBlur
         stdDeviation="2.7797923e-16"
         id="feGaussianBlur5017" />
    </filter>
    <filter
       id="filter5021">
      <feGaussianBlur
         stdDeviation="3.540764e-16"
         id="feGaussianBlur5023" />
    </filter>
    <filter
       id="filter5029">
      <feGaussianBlur
         stdDeviation="9.5450992e-17"
         id="feGaussianBlur5031" />
    </filter>
    <filter
       id="filter5037">
      <feGaussianBlur
         stdDeviation="2.719479e-16"
         id="feGaussianBlur5039" />
    </filter>
    <filter
       id="filter5047">
      <feGaussianBlur
         stdDeviation="7.0629428e-17"
         id="feGaussianBlur5049" />
    </filter>
    <filter
       id="filter5053">
      <feGaussianBlur
         stdDeviation="8.542732e-17"
         id="feGaussianBlur5055" />
    </filter>
    <filter
       id="filter5065">
      <feGaussianBlur
         stdDeviation="3.6846147e-16"
         id="feGaussianBlur5067" />
    </filter>
    <filter
       id="filter5071">
      <feGaussianBlur
         stdDeviation="7.1304694e-17"
         id="feGaussianBlur5073" />
    </filter>
    <filter
       id="filter5081">
      <feGaussianBlur
         stdDeviation="5.1533033e-17"
         id="feGaussianBlur5083" />
    </filter>
    <filter
       id="filter5087">
      <feGaussianBlur
         stdDeviation="8.9923924e-17"
         id="feGaussianBlur5089" />
    </filter>
    <filter
       id="filter5093">
      <feGaussianBlur
         stdDeviation="9.347894e-17"
         id="feGaussianBlur5095" />
    </filter>
    <filter
       id="filter5101">
      <feGaussianBlur
         stdDeviation="2.5833789e-16"
         id="feGaussianBlur5103" />
    </filter>
    <filter
       id="filter5109">
      <feGaussianBlur
         stdDeviation="3.7825131e-16"
         id="feGaussianBlur5111" />
    </filter>
    <filter
       id="filter5115">
      <feGaussianBlur
         stdDeviation="3.4628185e-16"
         id="feGaussianBlur5117" />
    </filter>
    <filter
       id="filter5121">
      <feGaussianBlur
         stdDeviation="3.5516116e-16"
         id="feGaussianBlur5123" />
    </filter>
    <filter
       id="filter5127">
      <feGaussianBlur
         stdDeviation="3.7191417e-16"
         id="feGaussianBlur5129" />
    </filter>
    <filter
       id="filter5133">
      <feGaussianBlur
         stdDeviation="2.0203362e-17"
         id="feGaussianBlur5135" />
    </filter>
    <filter
       id="filter5141">
      <feGaussianBlur
         stdDeviation="3.7364289e-17"
         id="feGaussianBlur5143" />
    </filter>
    <filter
       id="filter5147">
      <feGaussianBlur
         stdDeviation="1.870553e-16"
         id="feGaussianBlur5149" />
    </filter>
    <filter
       id="filter5163">
      <feGaussianBlur
         stdDeviation="1.7343334e-16"
         id="feGaussianBlur5165" />
    </filter>
    <filter
       id="filter5179">
      <feGaussianBlur
         stdDeviation="2.6844836e-16"
         id="feGaussianBlur5181" />
    </filter>
    <filter
       id="filter5191">
      <feGaussianBlur
         stdDeviation="2.9392208e-16"
         id="feGaussianBlur5193" />
    </filter>
    <filter
       id="filter5197">
      <feGaussianBlur
         stdDeviation="3.0754805e-16"
         id="feGaussianBlur5199" />
    </filter>
    <filter
       id="filter7835">
      <feGaussianBlur
         stdDeviation="1.6761411e-16"
         id="feGaussianBlur7837" />
    </filter>
    <filter
       id="filter7847">
      <feGaussianBlur
         stdDeviation="5.8891999e-17"
         id="feGaussianBlur7849" />
    </filter>
    <filter
       id="filter7853">
      <feGaussianBlur
         stdDeviation="7.6445309e-17"
         id="feGaussianBlur7855" />
    </filter>
    <filter
       id="filter7861">
      <feGaussianBlur
         stdDeviation="7.349094e-17"
         id="feGaussianBlur7863" />
    </filter>
    <filter
       id="filter7867">
      <feGaussianBlur
         stdDeviation="1.825907e-16"
         id="feGaussianBlur7869" />
    </filter>
    <filter
       id="filter7873">
      <feGaussianBlur
         stdDeviation="2.2199202e-16"
         id="feGaussianBlur7875" />
    </filter>
    <filter
       id="filter7881">
      <feGaussianBlur
         stdDeviation="3.0824404e-17"
         id="feGaussianBlur7883" />
    </filter>
    <filter
       id="filter7887">
      <feGaussianBlur
         stdDeviation="3.718779e-17"
         id="feGaussianBlur7889" />
    </filter>
    <filter
       id="filter7895">
      <feGaussianBlur
         stdDeviation="1.8918549e-16"
         id="feGaussianBlur7897" />
    </filter>
    <filter
       id="filter7903">
      <feGaussianBlur
         stdDeviation="1.6255994e-16"
         id="feGaussianBlur7905" />
    </filter>
    <filter
       id="filter7917">
      <feGaussianBlur
         stdDeviation="1.4599034e-16"
         id="feGaussianBlur7919" />
    </filter>
    <filter
       id="filter7925">
      <feGaussianBlur
         stdDeviation="1.6050267e-16"
         id="feGaussianBlur7927" />
    </filter>
    <filter
       id="filter7931">
      <feGaussianBlur
         stdDeviation="2.3263627e-16"
         id="feGaussianBlur7933" />
    </filter>
    <filter
       id="filter7937">
      <feGaussianBlur
         stdDeviation="3.3110599e-17"
         id="feGaussianBlur7939" />
    </filter>
    <filter
       id="filter7943">
      <feGaussianBlur
         stdDeviation="1.1153854e-16"
         id="feGaussianBlur7945" />
    </filter>
    <filter
       id="filter7949">
      <feGaussianBlur
         stdDeviation="1.3299926e-17"
         id="feGaussianBlur7951" />
    </filter>
    <filter
       id="filter7955">
      <feGaussianBlur
         stdDeviation="3.7185412e-17"
         id="feGaussianBlur7957" />
    </filter>
    <filter
       id="filter7961">
      <feGaussianBlur
         stdDeviation="1.7042575e-18"
         id="feGaussianBlur7963" />
    </filter>
    <filter
       id="filter7967">
      <feGaussianBlur
         stdDeviation="1.6500527e-16"
         id="feGaussianBlur7969" />
    </filter>
    <filter
       id="filter7973">
      <feGaussianBlur
         stdDeviation="2.226038e-16"
         id="feGaussianBlur7975" />
    </filter>
    <filter
       id="filter7979">
      <feGaussianBlur
         stdDeviation="1.8599148e-16"
         id="feGaussianBlur7981" />
    </filter>
    <filter
       id="filter7989">
      <feGaussianBlur
         stdDeviation="3.5439575e-17"
         id="feGaussianBlur7991" />
    </filter>
    <filter
       id="filter7995">
      <feGaussianBlur
         stdDeviation="1.653928e-16"
         id="feGaussianBlur7997" />
    </filter>
    <filter
       id="filter8003">
      <feGaussianBlur
         stdDeviation="2.5005466e-17"
         id="feGaussianBlur8005" />
    </filter>
    <filter
       id="filter8011">
      <feGaussianBlur
         stdDeviation="3.3333716e-17"
         id="feGaussianBlur8013" />
    </filter>
    <filter
       id="filter8039">
      <feGaussianBlur
         stdDeviation="2.316329e-16"
         id="feGaussianBlur8041" />
    </filter>
    <filter
       id="filter8051">
      <feGaussianBlur
         stdDeviation="2.304031e-16"
         id="feGaussianBlur8053" />
    </filter>
    <filter
       id="filter8061">
      <feGaussianBlur
         stdDeviation="4.4868739e-17"
         id="feGaussianBlur8063" />
    </filter>
    <filter
       id="filter8067">
      <feGaussianBlur
         stdDeviation="1.6050413e-16"
         id="feGaussianBlur8069" />
    </filter>
    <filter
       id="filter8075">
      <feGaussianBlur
         stdDeviation="2.0808203e-16"
         id="feGaussianBlur8077" />
    </filter>
  </defs>
  <sodipodi:namedview
     id="base"
     pagecolor="#ffffff"
     bordercolor="#666666"
     borderopacity="1.0"
     inkscape:pageopacity="0.0"
     inkscape:pageshadow="2"
     inkscape:zoom="2.0000001"
     inkscape:cx="-87.15404"
     inkscape:cy="40.695573"
     inkscape:document-units="px"
     inkscape:current-layer="svg2893"
     showgrid="false"
     inkscape:window-width="1018"
     inkscape:window-height="667"
     inkscape:window-x="177"
     inkscape:window-y="36"
     inkscape:window-maximized="0"
     showborder="false" />
  <metadata
     id="metadata2898">
    <rdf:RDF>
      <cc:Work
         rdf:about="">
        <dc:format>image/svg+xml</dc:format>
        <dc:type
           rdf:resource="http://purl.org/dc/dcmitype/StillImage" />
        <dc:title />
      </cc:Work>
    </rdf:RDF>
  </metadata>
  <g
     inkscape:label="Transform"
     inkscape:groupmode="layer"
     id="layer1"
     style="display:inline"
     transform="matrix(1.4142136,0.7071068,-1.4142136,0.7071068,66.5,0)">
    <g
       inkscape:label="Scale"
       inkscape:groupmode="layer"
       id="scale"
       style="display:inline"
       transform="scale(0.47,0.47)">
      <rect
         style="fill-rule:evenodd;stroke:#9a8b6e;stroke-width:0.5px"
         id="rect2700"
         width="12.5"
         height="12.5"
         x="-26.162951"
         y="-14.494053"
         inkscape:tile-cx="-19.912951"
         inkscape:tile-cy="-8.2440529"
         inkscape:tile-w="12.5"
         inkscape:tile-h="12.5"
         inkscape:tile-x0="-26.162951"
         inkscape:tile-y0="-14.494053" />
      <use
         x="0"
         y="0"
         inkscape:tiled-clone-of="#rect2700"
         xlink:href="#rect2700"
         id="use7637"
         style="fill:#3f5851;stroke:#3f5851"
         width="133"
         height="67" />
      <use
         x="0"
         y="0"
         inkscape:tiled-clone-of="#rect2700"
         xlink:href="#rect2700"
         transform="translate(0,12.5)"
         id="use7639"
         style="fill:#475e5b;stroke:#475e5b"
         width="133"
         height="67" />
      <use
         x="0"
         y="0"
         inkscape:tiled-clone-of="#rect2700"
         xlink:href="#rect2700"
         transform="translate(0,25)"
         id="use7641"
         style="fill:#497169;stroke:#497169"
         width="133"
         height="67" />
      <use
         x="0"
         y="0"
         inkscape:tiled-clone-of="#rect2700"
         xlink:href="#rect2700"
         transform="translate(0,37.5)"
         id="use7643"
         style="fill:#435955;stroke:#435955"
         width="133"
         height="67" />
      <use
         x="0"
         y="0"
         inkscape:tiled-clone-of="#rect2700"
         xlink:href="#rect2700"
         transform="translate(0,50)"
         id="use7645"
         style="fill:#53746d;stroke:#53746d"
         width="133"
         height="67" />
      <use
         x="0"
         y="0"
         inkscape:tiled-clone-of="#rect2700"
         xlink:href="#rect2700"
         transform="translate(0,62.5)"
         id="use7647"
         style="fill:#426361;stroke:#426361"
         width="133"
         height="67" />
      <use
         x="0"
         y="0"
         inkscape:tiled-clone-of="#rect2700"
         xlink:href="#rect2700"
         transform="translate(0,75)"
         id="use7649"
         style="fill:#507268;stroke:#507268"
         width="133"
         height="67" />
      <use
         x="0"
         y="0"
         inkscape:tiled-clone-of="#rect2700"
         xlink:href="#rect2700"
         transform="translate(0,87.5)"
         id="use7651"
         style="fill:#41635f;stroke:#41635f"
         width="133"
         height="67" />
      <use
         x="0"
         y="0"
         inkscape:tiled-clone-of="#rect2700"
         xlink:href="#rect2700"
         transform="translate(12.5,0)"
         id="use7653"
         style="fill:#466a67;stroke:#466a67"
         width="133"
         height="67" />
      <use
         x="0"
         y="0"
         inkscape:tiled-clone-of="#rect2700"
         xlink:href="#rect2700"
         transform="translate(12.5,12.5)"
         id="use7655"
         style="fill:#476b64;stroke:#476b64"
         width="133"
         height="67" />
      <use
         x="0"
         y="0"
         inkscape:tiled-clone-of="#rect2700"
         xlink:href="#rect2700"
         transform="translate(12.5,25)"
         id="use7657"
         style="fill:#4f6a66;stroke:#4f6a66"
         width="133"
         height="67" />
      <use
         x="0"
         y="0"
         inkscape:tiled-clone-of="#rect2700"
         xlink:href="#rect2700"
         transform="translate(12.5,37.5)"
         id="use7659"
         style="fill:#486e6d;stroke:#486e6d"
         width="133"
         height="67" />
      <use
         x="0"
         y="0"
         inkscape:tiled-clone-of="#rect2700"
         xlink:href="#rect2700"
         transform="translate(12.5,50)"
         id="use7661"
         style="fill:#436761;stroke:#436761"
         width="133"
         height="67" />
      <use
         x="0"
         y="0"
         inkscape:tiled-clone-of="#rect2700"
         xlink:href="#rect2700"
         transform="translate(12.5,62.5)"
         id="use7663"
         style="fill:#47736f;stroke:#47736f"
         width="133"
         height="67" />
      <use
         x="0"
         y="0"
         inkscape:tiled-clone-of="#rect2700"
         xlink:href="#rect2700"
         transform="translate(12.5,75)"
         id="use7665"
         style="fill:#456663;stroke:#456663"
         width="133"
         height="67" />
      <use
         x="0"
         y="0"
         inkscape:tiled-clone-of="#rect2700"
         xlink:href="#rect2700"
         transform="translate(12.5,87.5)"
         id="use7667"
         style="fill:#4d6e6a;stroke:#4d6e6a"
         width="133"
         height="67" />
      <use
         x="0"
         y="0"
         inkscape:tiled-clone-of="#rect2700"
         xlink:href="#rect2700"
         transform="translate(25,0)"
         id="use7669"
         style="fill:#43675f;stroke:#43675f"
         width="133"
         height="67" />
      <use
         x="0"
         y="0"
         inkscape:tiled-clone-of="#rect2700"
         xlink:href="#rect2700"
         transform="translate(25,12.5)"
         id="use7671"
         style="fill:#44695f;stroke:#44695f"
         width="133"
         height="67" />
      <use
         x="0"
         y="0"
         inkscape:tiled-clone-of="#rect2700"
         xlink:href="#rect2700"
         transform="translate(25,25)"
         id="use7673"
         style="fill:#51716b;stroke:#51716b"
         width="133"
         height="67" />
      <use
         x="0"
         y="0"
         inkscape:tiled-clone-of="#rect2700"
         xlink:href="#rect2700"
         transform="translate(25,37.5)"
         id="use7675"
         style="fill:#4c6b63;stroke:#4c6b63"
         width="133"
         height="67" />
      <use
         x="0"
         y="0"
         inkscape:tiled-clone-of="#rect2700"
         xlink:href="#rect2700"
         transform="translate(25,50)"
         id="use7677"
         style="fill:#4d6862;stroke:#4d6862"
         width="133"
         height="67" />
      <use
         x="0"
         y="0"
         inkscape:tiled-clone-of="#rect2700"
         xlink:href="#rect2700"
         transform="translate(25,62.5)"
         id="use7679"
         style="fill:#4b665f;stroke:#4b665f"
         width="133"
         height="67" />
      <use
         x="0"
         y="0"
         inkscape:tiled-clone-of="#rect2700"
         xlink:href="#rect2700"
         transform="translate(25,75)"
         id="use7681"
         style="fill:#4d796b;stroke:#4d796b"
         width="133"
         height="67" />
      <use
         x="0"
         y="0"
         inkscape:tiled-clone-of="#rect2700"
         xlink:href="#rect2700"
         transform="translate(25,87.5)"
         id="use7683"
         style="fill:#4d776c;stroke:#4d776c"
         width="133"
         height="67" />
      <use
         x="0"
         y="0"
         inkscape:tiled-clone-of="#rect2700"
         xlink:href="#rect2700"
         transform="translate(37.5,0)"
         id="use7685"
         style="fill:#547772;stroke:#547772"
         width="133"
         height="67" />
      <use
         x="0"
         y="0"
         inkscape:tiled-clone-of="#rect2700"
         xlink:href="#rect2700"
         transform="translate(37.5,12.5)"
         id="use7687"
         style="fill:#51736f;stroke:#51736f"
         width="133"
         height="67" />
      <use
         x="0"
         y="0"
         inkscape:tiled-clone-of="#rect2700"
         xlink:href="#rect2700"
         transform="translate(37.5,25)"
         id="use7689"
         style="fill:#4f6e66;stroke:#4f6e66"
         width="133"
         height="67" />
      <use
         x="0"
         y="0"
         inkscape:tiled-clone-of="#rect2700"
         xlink:href="#rect2700"
         transform="translate(37.5,37.5)"
         id="use7691"
         style="fill:#4f7a79;stroke:#4f7a79"
         width="133"
         height="67" />
      <use
         x="0"
         y="0"
         inkscape:tiled-clone-of="#rect2700"
         xlink:href="#rect2700"
         transform="translate(37.5,50)"
         id="use7693"
         style="fill:#4d6861;stroke:#4d6861"
         width="133"
         height="67" />
      <use
         x="0"
         y="0"
         inkscape:tiled-clone-of="#rect2700"
         xlink:href="#rect2700"
         transform="translate(37.5,62.5)"
         id="use7695"
         style="fill:#4b6f67;stroke:#4b6f67"
         width="133"
         height="67" />
      <use
         x="0"
         y="0"
         inkscape:tiled-clone-of="#rect2700"
         xlink:href="#rect2700"
         transform="translate(37.5,75)"
         id="use7697"
         style="fill:#516f67;stroke:#516f67"
         width="133"
         height="67" />
      <use
         x="0"
         y="0"
         inkscape:tiled-clone-of="#rect2700"
         xlink:href="#rect2700"
         transform="translate(37.5,87.5)"
         id="use7699"
         style="fill:#435b56;stroke:#435b56"
         width="133"
         height="67" />
      <use
         x="0"
         y="0"
         inkscape:tiled-clone-of="#rect2700"
         xlink:href="#rect2700"
         transform="translate(50,0)"
         id="use7701"
         style="fill:#43645b;stroke:#43645b"
         width="133"
         height="67" />
      <use
         x="0"
         y="0"
         inkscape:tiled-clone-of="#rect2700"
         xlink:href="#rect2700"
         transform="translate(50,12.5)"
         id="use7703"
         style="fill:#425854;stroke:#425854"
         width="133"
         height="67" />
      <use
         x="0"
         y="0"
         inkscape:tiled-clone-of="#rect2700"
         xlink:href="#rect2700"
         transform="translate(50,25)"
         id="use7705"
         style="fill:#52746d;stroke:#52746d"
         width="133"
         height="67" />
      <use
         x="0"
         y="0"
         inkscape:tiled-clone-of="#rect2700"
         xlink:href="#rect2700"
         transform="translate(50,37.5)"
         id="use7707"
         style="fill:#486f6a;stroke:#486f6a"
         width="133"
         height="67" />
      <use
         x="0"
         y="0"
         inkscape:tiled-clone-of="#rect2700"
         xlink:href="#rect2700"
         transform="translate(50,50)"
         id="use7709"
         style="fill:#436259;stroke:#436259"
         width="133"
         height="67" />
      <use
         x="0"
         y="0"
         inkscape:tiled-clone-of="#rect2700"
         xlink:href="#rect2700"
         transform="translate(50,62.5)"
         id="use7711"
         style="fill:#4d6f66;stroke:#4d6f66"
         width="133"
         height="67" />
      <use
         x="0"
         y="0"
         inkscape:tiled-clone-of="#rect2700"
         xlink:href="#rect2700"
         transform="translate(50,75)"
         id="use7713"
         style="fill:#405954;stroke:#405954"
         width="133"
         height="67" />
      <use
         x="0"
         y="0"
         inkscape:tiled-clone-of="#rect2700"
         xlink:href="#rect2700"
         transform="translate(50,87.5)"
         id="use7715"
         style="fill:#47625b;stroke:#47625b"
         width="133"
         height="67" />
      <use
         x="0"
         y="0"
         inkscape:tiled-clone-of="#rect2700"
         xlink:href="#rect2700"
         transform="translate(62.5,0)"
         id="use7717"
         style="fill:#527a77;stroke:#527a77"
         width="133"
         height="67" />
      <use
         x="0"
         y="0"
         inkscape:tiled-clone-of="#rect2700"
         xlink:href="#rect2700"
         transform="translate(62.5,12.5)"
         id="use7719"
         style="fill:#537a79;stroke:#537a79"
         width="133"
         height="67" />
      <use
         x="0"
         y="0"
         inkscape:tiled-clone-of="#rect2700"
         xlink:href="#rect2700"
         transform="translate(62.5,25)"
         id="use7721"
         style="fill:#3e6158;stroke:#3e6158"
         width="133"
         height="67" />
      <use
         x="0"
         y="0"
         inkscape:tiled-clone-of="#rect2700"
         xlink:href="#rect2700"
         transform="translate(62.5,37.5)"
         id="use7723"
         style="fill:#547c77;stroke:#547c77"
         width="133"
         height="67" />
      <use
         x="0"
         y="0"
         inkscape:tiled-clone-of="#rect2700"
         xlink:href="#rect2700"
         transform="translate(62.5,50)"
         id="use7725"
         style="fill:#496d66;stroke:#496d66"
         width="133"
         height="67" />
      <use
         x="0"
         y="0"
         inkscape:tiled-clone-of="#rect2700"
         xlink:href="#rect2700"
         transform="translate(62.5,62.5)"
         id="use7727"
         style="fill:#4e7e73;stroke:#4e7e73"
         width="133"
         height="67" />
      <use
         x="0"
         y="0"
         inkscape:tiled-clone-of="#rect2700"
         xlink:href="#rect2700"
         transform="translate(62.5,75)"
         id="use7729"
         style="fill:#546e68;stroke:#546e68"
         width="133"
         height="67" />
      <use
         x="0"
         y="0"
         inkscape:tiled-clone-of="#rect2700"
         xlink:href="#rect2700"
         transform="translate(62.5,87.5)"
         id="use7731"
         style="fill:#40665f;stroke:#40665f"
         width="133"
         height="67" />
      <use
         x="0"
         y="0"
         inkscape:tiled-clone-of="#rect2700"
         xlink:href="#rect2700"
         transform="translate(75,0)"
         id="use7733"
         style="fill:#4f6c67;stroke:#4f6c67"
         width="133"
         height="67" />
      <use
         x="0"
         y="0"
         inkscape:tiled-clone-of="#rect2700"
         xlink:href="#rect2700"
         transform="translate(75,12.5)"
         id="use7735"
         style="fill:#4e6966;stroke:#4e6966"
         width="133"
         height="67" />
      <use
         x="0"
         y="0"
         inkscape:tiled-clone-of="#rect2700"
         xlink:href="#rect2700"
         transform="translate(75,25)"
         id="use7737"
         style="fill:#496e67;stroke:#496e67"
         width="133"
         height="67" />
      <use
         x="0"
         y="0"
         inkscape:tiled-clone-of="#rect2700"
         xlink:href="#rect2700"
         transform="translate(75,37.5)"
         id="use7739"
         style="fill:#47655d;stroke:#47655d"
         width="133"
         height="67" />
      <use
         x="0"
         y="0"
         inkscape:tiled-clone-of="#rect2700"
         xlink:href="#rect2700"
         transform="translate(75,50)"
         id="use7741"
         style="fill:#48675e;stroke:#48675e"
         width="133"
         height="67" />
      <use
         x="0"
         y="0"
         inkscape:tiled-clone-of="#rect2700"
         xlink:href="#rect2700"
         transform="translate(75,62.5)"
         id="use7743"
         style="fill:#4d716c;stroke:#4d716c"
         width="133"
         height="67" />
      <use
         x="0"
         y="0"
         inkscape:tiled-clone-of="#rect2700"
         xlink:href="#rect2700"
         transform="translate(75,75)"
         id="use7745"
         style="fill:#446359;stroke:#446359"
         width="133"
         height="67" />
      <use
         x="0"
         y="0"
         inkscape:tiled-clone-of="#rect2700"
         xlink:href="#rect2700"
         transform="translate(75,87.5)"
         id="use7747"
         style="fill:#50766f;stroke:#50766f"
         width="133"
         height="67" />
      <use
         x="0"
         y="0"
         inkscape:tiled-clone-of="#rect2700"
         xlink:href="#rect2700"
         transform="translate(87.5,0)"
         id="use7749"
         style="fill:#4e6b69;stroke:#4e6b69"
         width="133"
         height="67" />
      <use
         x="0"
         y="0"
         inkscape:tiled-clone-of="#rect2700"
         xlink:href="#rect2700"
         transform="translate(87.5,12.5)"
         id="use7751"
         style="fill:#42605a;stroke:#42605a"
         width="133"
         height="67" />
      <use
         x="0"
         y="0"
         inkscape:tiled-clone-of="#rect2700"
         xlink:href="#rect2700"
         transform="translate(87.5,25)"
         id="use7753"
         style="fill:#4e6a66;stroke:#4e6a66"
         width="133"
         height="67" />
      <use
         x="0"
         y="0"
         inkscape:tiled-clone-of="#rect2700"
         xlink:href="#rect2700"
         transform="translate(87.5,37.5)"
         id="use7755"
         style="fill:#425d5c;stroke:#425d5c"
         width="133"
         height="67" />
      <use
         x="0"
         y="0"
         inkscape:tiled-clone-of="#rect2700"
         xlink:href="#rect2700"
         transform="translate(87.5,50)"
         id="use7757"
         style="fill:#40625d;stroke:#40625d"
         width="133"
         height="67" />
      <use
         x="0"
         y="0"
         inkscape:tiled-clone-of="#rect2700"
         xlink:href="#rect2700"
         transform="translate(87.5,62.5)"
         id="use7759"
         style="fill:#587974;stroke:#587974"
         width="133"
         height="67" />
      <use
         x="0"
         y="0"
         inkscape:tiled-clone-of="#rect2700"
         xlink:href="#rect2700"
         transform="translate(87.5,75)"
         id="use7761"
         style="fill:#445b58;stroke:#445b58"
         width="133"
         height="67" />
      <use
         x="0"
         y="0"
         inkscape:tiled-clone-of="#rect2700"
         xlink:href="#rect2700"
         transform="translate(87.5,87.5)"
         id="use7763"
         style="fill:#46635d;stroke:#46635d"
         width="133"
         height="67" />
    </g>
  </g>
</svg>
